﻿CompanyName,Stock Symbol,GIMAP,No,Name,Listing Date,Share,Listing Board,Listed
,AGRS,0.0,15.0,Bank IBK Indonesia Tbk.,22 Des 2014,"17,481,603,282",Development,1.0
,AIMS,0.0,17.0,Akbar Indo Makmur Stimec Tbk,20 Jul 2001,"220,000,000",Development,1.0
,AKSI,0.0,22.0,Maming Enam Sembilan Mineral T,13 Jul 2001,"720,000,000",Development,1.0
,AMOR,0.0,32.0,Ashmore Asset Management Indon,14 Jan 2020,"1,111,111,200",Development,1.0
,ARCI,0.0,42.0,Archi Indonesia Tbk.,28 Jun 2021,"24,835,000,000",Main,1.0
,ATAP,0.0,61.0,Trimitra Prawara Goldland Tbk.,11 Des 2020,"1,250,000,000",Development,1.0
,BANK,0.0,69.0,Bank Aladin Syariah Tbk.,01 Feb 2021,"13,061,141,834",Development,1.0
,BBSI,0.0,82.0,Bank Bisnis Internasional Tbk.,07 Sep 2020,"2,996,264,110",Development,1.0
,BBSS,0.0,83.0,Bumi Benowo Sukses Sejahtera T,15 Apr 2020,"4,800,016,020",Development,1.0
,BEBS,0.0,90.0,Berkah Beton Sadaya Tbk.,10 Mar 2021,"9,000,000,000",Development,1.0
,BHAT,0.0,98.0,Bhakti Multi Artha Tbk.,15 Apr 2020,"5,000,000,000",Development,1.0
,BMHS,0.0,116.0,Bundamedik Tbk.,06 Jul 2021,"8,603,416,176",Main,1.0
,CASH,0.0,160.0,Cashlez Worldwide Indonesia Tb,04 Mei 2020,"1,431,125,517",AKSELERASI,1.0
,CBMF,0.0,162.0,Cahaya Bintang Medan Tbk.,09 Apr 2020,"1,875,000,000",Development,1.0
,CSMI,0.0,184.0,Cipta Selera Murni Tbk.,09 Apr 2020,"816,061,500",Development,1.0
,DCII,0.0,192.0,DCI Indonesia Tbk.,06 Jan 2021,"2,383,745,900",Main,1.0
,DGNS,0.0,198.0,Diagnos Laboratorium Utama Tbk,15 Jan 2021,"1,250,000,000",Development,1.0
,EDGE,0.0,222.0,Indointernet Tbk.,08 Feb 2021,"404,050,000",Development,1.0
,ENZO,0.0,230.0,Morenzo Abadi Perkasa Tbk.,14 Sep 2020,"2,162,545,002",Development,1.0
,EPAC,0.0,231.0,Megalestari Epack Sentosaraya,01 Jul 2020,"3,303,400,000",Development,1.0
,FAPA,0.0,241.0,FAP Agri Tbk.,04 Jan 2021,"3,629,411,800",Development,1.0
,FIMP,0.0,245.0,Fimperkasa Utama Tbk.,09 Apr 2021,"400,000,000",AKSELERASI,1.0
,FLMC,0.0,249.0,Falmaco Nonwoven Industri Tbk.,08 Jul 2021,"781,250,000",Acceleration,1.0
,HOMI,0.0,292.0,Grand House Mulia Tbk.,10 Sep 2020,"787,500,000",Development,1.0
,HOPE,0.0,293.0,Harapan Duta Pertiwi Tbk.,24 Mei 2021,"2,129,167,000",Development,1.0
,IPAC,0.0,334.0,Era Graharealty Tbk.,30 Jun 2021,"949,868,500",Acceleration,1.0
,KBAG,0.0,363.0,Karya Bersama Anugerah Tbk.,08 Apr 2020,"7,150,001,106",Development,1.0
,KBRI,0.0,367.0,Kertas Basuki Rachmat Indonesi,11 Jul 2008,"8,687,995,734",Development,1.0
,KMDS,0.0,379.0,Kurniamitra Duta Sentosa Tbk.,07 Sep 2020,"800,000,000",Development,1.0
,LABA,0.0,392.0,Ladangbaja Murni Tbk.,10 Jun 2021,"1,000,000,000",Development,1.0
,LFLO,0.0,398.0,Imago Mulia Persada Tbk.,07 Apr 2021,"1,300,000,000",AKSELERASI,1.0
,LUCY,0.0,416.0,Lima Dua Lima Tiga Tbk.,05 Mei 2021,"1,035,000,000",AKSELERASI,1.0
,MASB,0.0,427.0,Bank Multiarta Sentosa Tbk.,30 Jun 2021,"1,226,902,970",Development,1.0
,MGLV,0.0,445.0,Panca Anugrah Wisesa Tbk.,08 Jun 2021,"1,900,000,000",Acceleration,1.0
,MYRX,0.0,480.0,Hanson International Tbk.,31 Okt 1990,"86,703,220,792",Development,1.0
,NICL,0.0,487.0,PAM Mineral Tbk.,09 Jul 2021,"9,662,500,000",Development,1.0
,NPGF,0.0,493.0,Nusa Palapa Gemilang Tbk.,14 Apr 2021,"3,240,235,840",Main,1.0
,PGUN,0.0,518.0,Pradiksi Gunatama Tbk.,07 Jul 2020,"4,998,360,000",Main,1.0
,PLAN,0.0,522.0,Planet Properindo Jaya Tbk.,15 Sep 2020,"892,856,800",AKSELERASI,1.0
,PMMP,0.0,526.0,Panca Mitra Multiperdana Tbk.,18 Des 2020,"2,353,000,000",Main,1.0
,PNGO,0.0,529.0,Pinago Utama Tbk.,31 Ags 2020,"781,250,000",Development,1.0
,PPGL,0.0,542.0,Prima Globalindo Logistik Tbk.,20 Jul 2020,"750,020,040",Acceleration,1.0
,PTDU,0.0,554.0,Djasa Ubersakti Tbk.,08 Des 2020,"1,500,000,000",Development,1.0
,PURI,0.0,564.0,Puri Global Sukses Tbk.,08 Sep 2020,"1,000,000,000",Development,1.0
,ROCK,0.0,580.0,Rockfields Properti Indonesia,10 Sep 2020,"1,435,185,100",Development,1.0
,RONY,0.0,582.0,Aesler Grup Internasional Tbk.,09 Apr 2020,"1,250,000,000",Development,1.0
,SBAT,0.0,590.0,Sejahtera Bintang Abadi Textil,08 Apr 2020,"2,148,904,505",Development,1.0
,SCNP,0.0,593.0,Selaras Citra Nusantara Perkas,07 Sep 2020,"2,500,000,000",Development,1.0
,SGER,0.0,599.0,Sumber Global Energy Tbk.,10 Ags 2020,"1,667,589,605",Development,1.0
,SNLK,0.0,626.0,Sunter Lakeside Hotel Tbk.,29 Mar 2021,"450,000,000",Development,1.0
,SOFA,0.0,628.0,Boston Furniture Industries Tb,07 Jul 2020,"1,650,133,750",AKSELERASI,1.0
,SOHO,0.0,629.0,Soho Global Health Tbk.,08 Sep 2020,"1,269,168,239",Main,1.0
,TAPG,0.0,653.0,Triputra Agro Persada Tbk.,12 Apr 2021,"19,852,540,000",Main,1.0
,TECH,0.0,663.0,Indosterling Technomedia Tbk.,04 Jun 2020,"1,256,300,000",Development,1.0
,TOYS,0.0,683.0,Sunindo Adipersada Tbk.,06 Ags 2020,"1,435,000,000",Development,1.0
,TRJA,0.0,692.0,Transkon Jaya Tbk.,27 Ags 2020,"1,510,200,000",Development,1.0
,TRUE,0.0,694.0,Triniti Dinamik Tbk.,10 Jun 2021,"7,569,850,000",Development,1.0
,UANG,0.0,700.0,Pakuan Tbk.,06 Jul 2020,"1,210,000,000",Development,1.0
,UFOE,0.0,702.0,Damai Sejahtera Abadi Tbk.,01 Feb 2021,"2,287,500,000",Main,1.0
,UNIQ,0.0,705.0,Ulima Nitra Tbk.,08 Mar 2021,"3,138,983,000",Main,1.0
,VICI,0.0,711.0,Victoria Care Indonesia Tbk.,17 Des 2020,"6,708,000,000",Main,1.0
,WIFI,0.0,721.0,Solusi Sinergi Digital Tbk.,30 Des 2020,"1,947,077,000",Development,1.0
,WMUU,0.0,725.0,Widodo Makmur Unggas Tbk.,02 Feb 2021,"12,941,176,500",Main,1.0
,ZYRX,0.0,738.0,Zyrexindo Mandiri Buana Tbk.,30 Mar 2021,"1,333,333,300",Development,1.0
