No.,"Company name
(EN)","Company name 
(JP)",AR投稿日,財務情報掲載日 (WSJ),"Trouble
Report","Stock
Market",Board,Stock Symbol,"investing.com
URL",,会計期末,対応,①会社概要作業シート（上場）,対応担当者,対応日,②会社概要アップロードファイル（上場）,対応担当者,対応日,③会社概要作業シート（非上場）,対応担当者,対応日,④財務情報アップロードファイル,対応担当者,対応日,⑤財務情報 - 会社概要アップロードファイル（上場）,対応担当者,対応日
1,2Go Group Inc.,2GOグループ,,202103<th>202012<th>202009<th>202006,,PSE,Main,2GO,https://www.investing.com/equities/2go-group,,12,,,,,,,,,,,,,,,,
2,8990 Holdings Inc.,8990ホールディングス,,202103<th>202012<th>202009<th>202006,,PSE,Main,HOUSE,https://www.investing.com/equities/8990-holding,,12,,,,,,,,,,,,,,,,
3,A. Brown Co. Inc.,Aブラウン,,202103<th>202012<th>202009<th>202006,,PSE,Main,BRN,https://www.investing.com/equities/a-brown-co,,12,,,,,,,,,,,,,,,,
4,A. Soriano Corp.,Aソリアノ,,202103<th>202012<th>202009<th>202006,,PSE,Main,ANS,https://www.investing.com/equities/a-soriano-corp,,12,,,,,,,,,,,,,,,,
5,AbaCore Capital Holdings Inc.,アバコールキャピタル,,202103<th>202012<th>202009<th>202006,,PSE,Main,ABA,https://www.investing.com/equities/abacore-capita,,12,,,,,,,,,,,,,,,,
6,Aboitiz Equity Ventures Inc.,アボティズ・エクイティベンチャー,,202103<th>202012<th>202009<th>202006,,PSE,Main,AEV,https://www.investing.com/equities/aboitiz-equity,,12,,,,,,,,,,,,,,,,
7,Aboitiz Power Corp.,アボティスパワー,,202103<th>202012<th>202009<th>202006,,PSE,Main,AP,https://www.investing.com/equities/aboitiz-power,,12,,,,,,,,,,,,,,,,
8,Abra Mining & Industrial Corp.,アブラマイニング&インダストリアル,,,取引停止中,PSE,Main,AR,https://www.investing.com/equities/abra-mining,,12,"詳細を調べた後、エラータイプを分類
→各ファイルにて修正作業",,,,,,,,,,,,,,,
9,ABS-CBN Corp.,ABS-CBN,,202103<th>202012<th>202009<th>202006,,PSE,Main,ABS,https://www.investing.com/equities/abs-cbn-broad,,12,,,,,,,,,,,,,,,,
10,Acesite (Philippines) Hotel Corp.,エースサイト・ホテル,,202103<th>202012<th>202009<th>202006,,PSE,Main,ACE,https://www.investing.com/equities/acesite-hotel,,12,,,,,,,,,,,,,,,,
11,AgriNurture Inc.,アグリナーチャー,,202103<th>202012<th>202009<th>202006,,PSE,Main,ANI,https://www.investing.com/equities/agrinurture,,12,,,,,,,,,,,,,,,,
12,Alliance Global Group Inc.,アライアンスグローバル,,202103<th>202012<th>202009<th>202006,,PSE,Main,AGI,https://www.investing.com/equities/alliance-globa,,12,,,,,,,,,,,,,,,,
13,Alliance Select Foods International Inc.,アライアンスセレクトフーズ・インターナショナル,,202103<th>202012<th>202009<th>202006,,PSE,Main,FOOD,https://www.investing.com/equities/aliance-sel-fo,,12,,,,,,,,,,,,,,,,
14,Alsons Consolidated Resources Inc.,アルソンズ・コンソリデートリソース,,202103<th>202012<th>202009<th>202006,,PSE,Main,ACR,https://www.investing.com/equities/alsons-cons-rs,,12,,,,,,,,,,,,,,,,
15,Anchor Land Holdings Inc.,アンコールランド・ホールディングス,,202103<th>202012<th>202009<th>202006,,PSE,Main,ALHI,https://www.investing.com/equities/anchor-land,,12,,,,,,,,,,,,,,,,
16,Anglo-Philippine Holdings Corp.,アングロフィリピン,,202103<th>202012<th>202009<th>202006,,PSE,Main,APO,https://www.investing.com/equities/anglo-phi-hldg,,12,,,,,,,,,,,,,,,,
17,APC Group Inc.,APCグループ,,202103<th>202012<th>202009<th>202006,,PSE,Main,APC,https://www.investing.com/equities/apc-group,,12,,,,,,,,,,,,,,,,
18,Apex Mining Co. Inc.,アペックスマイニング,,202103<th>202012<th>202009<th>202006,,PSE,Main,APX,https://www.investing.com/equities/apex-mining-a,,12,,,,,,,,,,,,,,,,
19,Araneta Properties Inc.,アラネタ・プロパティーズ,,202103<th>202012<th>202009<th>202006,,PSE,Main,ARA,https://www.investing.com/equities/araneta-prop,,12,,,,,,,,,,,,,,,,
20,Arthaland Corp.,アルサランド,,202103<th>202012<th>202009<th>202006,,PSE,Main,ALCO,https://www.investing.com/equities/arthaland-corp,,12,,,,,,,,,,,,,,,,
21,Asia United Bank Corp.,アジアユナイテッド・バンク,,202009<th>202006<th>202003<th>201912,,PSE,Main,AUB,https://www.investing.com/equities/asia-united-ba,,12,,,,,,,,,,,,,,,,
22,Asian Terminals Inc.,アジアンターミナル,,202103<th>202012<th>202009<th>202006,,PSE,Main,ATI,https://www.investing.com/equities/asian-terminal,,12,,,,,,,,,,,,,,,,
23,Atlas Consolidated Mining & Development Corp.,アトラス・コンソリデート・マイニングアンドデベロップメント,,202103<th>202012<th>202009<th>202006,,PSE,Main,AT,https://www.investing.com/equities/atlas-cons-min,,12,,,,,,,,,,,,,,,,
24,ATN Holdings Inc.,ATNホールディングス,,202012<th>202009<th>202006<th>202003,,PSE,Main,ATN,https://www.investing.com/equities/atn-hldgs-a,,3,,,,,,,,,,,,,,,,
25,Ayala Corp.,アヤラ,,202103<th>202012<th>202009<th>202006,,PSE,Main,AC,https://www.investing.com/equities/ayala-corp,,12,,,,,,,,,,,,,,,,
26,Ayala Land Inc.,アヤラランド,,202103<th>202012<th>202009<th>202006,,PSE,Main,ALI,https://www.investing.com/equities/ayala-land,,12,,,,,,,,,,,,,,,,
27,Bank of the Philippine Islands,バンクオブフィリピン,,202103<th>202012<th>202009<th>202006,,PSE,Main,BPI,https://www.investing.com/equities/bk-of-phi-isla,,12,,,,,,,,,,,,,,,,
28,Basic Energy Corp.,ベーシックエネルギー,,202009<th>202006<th>202003<th>201912,,PSE,Main,BSC,https://www.investing.com/equities/basic-energy,,12,,,,,,,,,,,,,,,,
29,BDO Leasing & Finance Inc.,BDOリーシングアンドファイナンス,,,取引停止中,PSE,Main,BLFI,https://www.investing.com/equities/bdo-leasing,,12,"詳細を調べた後、エラータイプを分類
→各ファイルにて修正作業",,,,,,,,,,,,,,,
30,BDO Unibank Inc.,BDOユニバンク,,202103<th>202012<th>202009<th>202006,,PSE,Main,BDO,https://www.investing.com/equities/bdo-unibank,,12,,,,,,,,,,,,,,,,
31,Belle Corp.,ベレ,,202103<th>202009<th>202006<th>202003,,PSE,Main,BEL,https://www.investing.com/equities/belle-corp,,12,,,,,,,,,,,,,,,,
32,Benguet Corp.,ベンゲット,,202103<th>202012<th>202009<th>202006,,PSE,Main,BC,https://www.investing.com/equities/benguet-a,,12,,,,,,,,,,,,,,,,
33,Berjaya Philippines Inc.,ベルジャヤ,,202103<th>202012<th>202009<th>202006,,PSE,Main,BCOR,https://www.investing.com/equities/berjaya,,6,,,,,,,,,,,,,,,,
34,BHI Holdings Inc.,BHI,,,取引停止中,PSE,Main,BH,https://www.investing.com/equities/bhi-holdings,,12,"詳細を調べた後、エラータイプを分類
→各ファイルにて修正作業",,,,,,,,,,,,,,,
35,Bloomberry Resorts Corp.,ブルームベリー・リゾート,,202103<th>202012<th>202009<th>202006,,PSE,Main,BLOOM,https://www.investing.com/equities/bloomberry-res,,12,,,,,,,,,,,,,,,,
36,Boulevard Holdings Inc.,ブールバール,,202102<th>202011<th>202008<th>202005,,PSE,Main,BHI,https://www.investing.com/equities/boulevard-hldg,,5,,,,,,,,,,,,,,,,
37,Bright Kindle Resources & Investments Inc.,ブライトキンドルリソースアンドインベストメント,,Exist,,PSE,Main,BKR,https://www.investing.com/equities/bright-kindle,,12,,,,,,,,,,,,,,,,
38,Cebu Air Inc.,セブエア,,Exist,,PSE,Main,CEB,https://www.investing.com/equities/cebu-air-inc,,12,,,,,,,,,,,,,,,,
39,Cebu Holdings Inc.,セブホールディングス,,Exist,,PSE,Main,CHI,https://www.investing.com/equities/cebu-hldgs,,12,,,,,,,,,,,,,,,,
40,Cemex Holdings Philippines Inc.,セメックス,,Exist,,PSE,Main,CHP,https://www.investing.com/equities/cemex-holdings-philippines-inc,,12,,,,,,,,,,,,,,,,
41,Central Azucarera de Tarlac Inc.,セントラル・アズーケアラ・デ・タルラク,,Exist,,PSE,Main,CAT,https://www.investing.com/equities/cen-azucar-tar,,6,,,,,,,,,,,,,,,,
42,Centro Escolar University,セントロエスコラー大学,,None,,PSE,Main,CEU,https://www.investing.com/equities/centro-esc-uni,,3,,,,,,,,,,,,,,,,
43,Century Pacific Food Inc.,センチュリー・パシフィック・フード,,Exist,,PSE,Main,CNPF,https://www.investing.com/equities/century-pacifi,,12,,,,,,,,,,,,,,,,
44,Century Peak Metals Holdings Corp.,センチュリー・ピーク・メタルズ・ホールディングス,,Exist,,PSE,Main,CPM,https://www.investing.com/equities/century-peak,,12,,,,,,,,,,,,,,,,
45,Century Properties Group Inc.,センチュリー・プロパティズ・グループ,,Exist,,PSE,Main,CPG,https://www.investing.com/equities/century-prop,,12,,,,,,,,,,,,,,,,
46,Chemical Industries of the Philippines Inc.,フィリピン化学工業,,Exist,,PSE,Main,CIP,https://www.investing.com/equities/chemical-inds,,12,,,,,,,,,,,,,,,,
47,China Banking Corp.,中国銀行,,Exist,,PSE,Main,CHIB,https://www.investing.com/equities/china-banking,,12,,,,,,,,,,,,,,,,
48,City & Land Developers Inc.,シティ＆ランド・デベロッパーズ,,Exist,,PSE,Main,LAND,https://www.investing.com/equities/city---land-de,,12,,,,,,,,,,,,,,,,
49,Cityland Development Corp.,シティーランド・デベロップメント,,Exist,,PSE,Main,CDC,https://www.investing.com/equities/cityland-dev,,12,,,,,,,,,,,,,,,,
50,Citystate Savings Bank Inc.,シティステート・セービング・バンク,,Exist,,PSE,Main,CSB,https://www.investing.com/equities/citystate-savi,,12,,,,,,,,,,,,,,,,
51,Coal Asia Holdings Inc.,コール・アジア・ホールディングス,,Exist,,PSE,Main,COAL,https://www.investing.com/equities/coal-asia-hldg,,12,,,,,,,,,,,,,,,,
52,COL Financial Group Inc.,COLフィナンシャル・グループ,,None,,PSE,Main,COL,https://www.investing.com/equities/col-financial-ps,,12,,,,,,,,,,,,,,,,
53,Concepcion Industrial Corp.,コンセプション・インダストリアル,,Exist,,PSE,Main,CIC,https://www.investing.com/equities/concepcion-ind,,12,,,,,,,,,,,,,,,,
54,Concrete Aggregates Corp.,コンクリート・アグリゲイツ,,Exist,,PSE,Main,CA,https://www.investing.com/equities/concrete-aggregates-corp,,12,,,,,,,,,,,,,,,,
55,Cosco Capital Inc.,コスコ・キャピタル,,Exist,,PSE,Main,COSCO,https://www.investing.com/equities/cosco-capital,,12,,,,,,,,,,,,,,,,
56,Cyber Bay Corp.,サイバー・ベイ,,Exist,,PSE,Main,CYBR,https://www.investing.com/equities/cyber-bay-corp,,12,,,,,,,,,,,,,,,,
57,D&L Industries Inc.,D&Lインダストリーズ,,Exist,,PSE,Main,DNL,https://www.investing.com/equities/d-l-industries,,12,,,,,,,,,,,,,,,,
58,Da Vinci Capital Holdings Inc.,ダヴィンチ・キャピタル・ホールディングス,,Exist,,PSE,Main,DAVIN,https://www.investing.com/equities/da-vinci-capit,,12,,,,,,,,,,,,,,,,
59,DFNN Inc.,DFNN,,Exist,,PSE,Main,DFNN,https://www.investing.com/equities/diversified-fi,,12,,,,,,,,,,,,,,,,
60,Discovery World Corp.,ディスカバリーワールド,,Exist,,PSE,Main,DWC,https://www.investing.com/equities/discovery-worl,,12,,,,,,,,,,,,,,,,
61,Dizon Copper-Silver Mines Inc.,ディゾン・カッパーシルバー・マインズ,,Exist,,PSE,Main,DIZ,https://www.investing.com/equities/dizon-copper,,12,,,,,,,,,,,,,,,,
62,DMCI Holdings Inc.,DMCIホールディングス,,Exist,,PSE,Main,DMC,https://www.investing.com/equities/dmci-holdings,,12,,,,,,,,,,,,,,,,
63,DoubleDragon Properties Corp.,ダブルドラゴン・プロパティーズ,,Exist,,PSE,Main,DD,https://www.investing.com/equities/doubledragon-properties-corp,,12,,,,,,,,,,,,,,,,
64,East West Banking Corp.,イースト・ウエスト・バンク,,Exist,,PSE,Main,EW,https://www.investing.com/equities/ew-banking-cor,,12,,,,,,,,,,,,,,,,
65,Easycall Communications Philippines Inc.,イージーコール・コミュニケーションズ・フィリピン,,Exist,,PSE,Main,ECP,https://www.investing.com/equities/easycall-communications-philippines,,12,,,,,,,,,,,,,,,,
66,EEI Corp.,EEI,,Exist,,PSE,Main,EEI,https://www.investing.com/equities/eei-corp,,12,,,,,,,,,,,,,,,,
67,Emperador Inc.,エンペラドル,,Exist,,PSE,Main,EMP,https://www.investing.com/equities/emperador-inc,,12,,,,,,,,,,,,,,,,
68,Empire East Land Holdings Inc.,エンパイヤー・イースト・ランド・ホールディングス,,Exist,,PSE,Main,ELI,https://www.investing.com/equities/empire-east-la,,12,,,,,,,,,,,,,,,,
69,Euro-Med Laboratories Philippines Inc.,ユーロメド・ラボラトリーズ・フィリピン,,Exist,,PSE,Main,EURO,https://www.investing.com/equities/euro-med-lab,,12,,,,,,,,,,,,,,,,
70,Ever Gotesco Resources & Holdings Inc.,エバーゴテスコ ・リソーシーズ＆ホールディングス,,Exist,,PSE,Main,EVER,https://www.investing.com/equities/ever-gotesco,,12,,,,,,,,,,,,,,,,
71,F&J Prince Holdings Corp.,F＆Jプリンスホールディングス,,Exist,,PSE,Main,FJP,https://www.investing.com/equities/f-j-prince-hld,,12,,,,,,,,,,,,,,,,
72,Far Eastern University Inc.,ファー・イースタン大学,,None,,PSE,Main,FEU,https://www.investing.com/equities/far-eastern-un,,5,,,,,,,,,,,,,,,,
73,Filinvest Development Corp.,フィリンベスト・デベロップメント,,Exist,,PSE,Main,FDC,https://www.investing.com/equities/filinvest-dev,,12,,,,,,,,,,,,,,,,
74,Filinvest Land Inc.,フィルインベスト・ランド,,Exist,,PSE,Main,FLI,https://www.investing.com/equities/filinvest-land,,12,,,,,,,,,,,,,,,,
75,First Abacus Financial Holdings Corp.,ファースト・アバカス・フィナンシャル・ホールディングス,,Exist,,PSE,Main,FAF,https://www.investing.com/equities/first-abacus,,12,,,,,,,,,,,,,,,,
76,First Gen Corp.,ファースト・ジェン,,Exist,,PSE,Main,FGEN,https://www.investing.com/equities/first-gen,,12,,,,,,,,,,,,,,,,
77,First Philippine Holdings Corp.,ファースト・フィリピン・ホールディングス,,Exist,,PSE,Main,FPH,https://www.investing.com/equities/first-phil-hld,,12,,,,,,,,,,,,,,,,
78,Forum Pacific Inc.,フォーラム ・パシフィック,,Exist,,PSE,Main,FPI,https://www.investing.com/equities/forum-pacific,,12,,,,,,,,,,,,,,,,
79,Geograce Resources Philippines Inc.,ジオグレース・リソーシーズ・フィリピン,,Exist,,PSE,Main,GEO,https://www.investing.com/equities/geograce,,12,,,,,,,,,,,,,,,,
80,Global Ferronickel Holdings Inc.,グローバルフェロニケル,,Exist,,PSE,Main,FNI,https://www.investing.com/equities/sea-cement-hld,,12,,,,,,,,,,,,,,,,
81,Global-Estate Resorts Inc.,グローバルエステーツリゾーツ,,Exist,,PSE,Main,GERI,https://www.investing.com/equities/global-estate,,12,,,,,,,,,,,,,,,,
82,Globe Telecom Inc. A,グローブテレコム,,Exist,,PSE,Main,GLO,https://www.investing.com/equities/globe-telecom,,12,,,,,,,,,,,,,,,,
83,GMA Network Inc.,GMAネットワーク,,Exist,,PSE,Main,GMA7,https://www.investing.com/equities/gma-network,,12,,,,,,,,,,,,,,,,
84,(Golden Bria Holdings Inc.),ゴールデンブリアホールディングス,,Exist,,PSE,Main,HVN,https://www.investing.com/equities/golden-haven-memorial-park-inc,,12,,,,,,,,,,,,,,,,
85,Grand Plaza Hotel Corp.,グランドプラザホテル,,Exist,,PSE,Main,GPH,https://www.investing.com/equities/grand-plaza-hotel-corp,,12,,,,,,,,,,,,,,,,
86,GT Capital Holdings Inc.,GTカピタルホールディングス,,Exist,,PSE,Main,GTCAP,https://www.investing.com/equities/gt-capital-hol,,12,,,,,,,,,,,,,,,,
87,Harbor Star Shipping Services Inc.,ハーバースターシッピングサービシーズ,,Exist,,PSE,Main,TUGS,https://www.investing.com/equities/harbor-star-sh,,12,,,,,,,,,,,,,,,,
88,Holcim Philippines Inc.,ホルシムフィリピンズ,,Exist,,PSE,Main,HLCM,https://www.investing.com/equities/holcim-phils,,12,,,,,,,,,,,,,,,,
89,House of Investments Inc.,ハウスオブインベストメンツ,,Exist,,PSE,Main,HI,https://www.investing.com/equities/house-of-inves,,12,,,,,,,,,,,,,,,,
90,I-Remit Inc.,I-レミット,,Exist,,PSE,Main,I,https://www.investing.com/equities/i-remit-inc,,12,,,,,,,,,,,,,,,,
91,Imperial Resources Inc.,インペリアルリソーシーズ,,Exist,,PSE,Main,IMP,https://www.investing.com/equities/imperial-rsc-a,,12,,,,,,,,,,,,,,,,
92,Integrated Micro-Electronics Inc.,インテグレーテッドミクロエレクトロニクス,,Exist,,PSE,Main,IMI,https://www.investing.com/equities/integrated-mic,,12,,,,,,,,,,,,,,,,
93,International Container Terminal Services Inc.,インターナショナルコンテナターミナルサービシーズ,,Exist,,PSE,Main,ICT,https://www.investing.com/equities/intl-container,,12,,,,,,,,,,,,,,,,
94,Ionics Inc.,アイオニクス,,Exist,,PSE,Main,ION,https://www.investing.com/equities/ionics-inc,,12,,,,,,,,,,,,,,,,
95,iPeople Inc. A,iピープル,,Exist,,PSE,Main,IPO,https://www.investing.com/equities/ipeople,,12,,,,,,,,,,,,,,,,
96,Philippine Infradev Holdings Inc.,フィリピンインフラデヴホールディングス,,Exist,,PSE,Main,IRC,https://www.investing.com/equities/irc-properties,,12,,,,,,,,,,,,,,,,
97,Island Information & Technology Inc.,アイランドインフォメーション&テクノロジー,,,取引停止中,PSE,Main,IS,https://www.investing.com/equities/island-info-te,,10,"詳細を調べた後、エラータイプを分類
→各ファイルにて修正作業",,,,,,,,,,,,,,,
98,DITO CME Holdings Corp.,DITO・CMEホールディングス,,Exist,,PSE,Main,DITO,https://www.investing.com/equities/ism-comms-corp,,12,,,,,,,,,,,,,,,,
99,Italpinas Development Corp.,イタピナスデベロップメント,,Exist,,PSE,SME,IDC,https://www.investing.com/equities/italpinas-development-corp,,12,,,,,,,,,,,,,,,,
100,Jackstones Inc.,ジャックストーンズ,,Exist,,PSE,Main,JAS,https://www.investing.com/equities/jackstones,,12,,,,,,,,,,,,,,,,
101,JG Summit Holdings Inc.,JG サミットホールディングス,,Exist,,PSE,Main,JGS,https://www.investing.com/equities/jg-summit,,12,,,,,,,,,,,,,,,,
102,Jollibee Foods Corp.,ジョリビーフード,,Exist,,PSE,Main,JFC,https://www.investing.com/equities/jollibee-foods,,12,,,,,,,,,,,,,,,,
103,Keppel Philippines Holdings Inc.,ケッペルフィリピンズホールディングス,,Exist,,PSE,Main,KPH,https://www.investing.com/equities/keppel-hldgs-a,,12,,,,,,,,,,,,,,,,
104,Keppel Philippines Properties Inc.,ケッペルフィリピンズプロパティーズ,,Exist,,PSE,Main,KEP,https://www.investing.com/equities/keppel-prop,,12,,,,,,,,,,,,,,,,
105,LBC Express Holdings Inc.,LBCエクスプレスホールディングス,,Exist,,PSE,Main,LBC,https://www.investing.com/equities/federal-chemic,,12,,,,,,,,,,,,,,,,
106,Leisure & Resorts World Corp.,レジャー＆リゾートワールド,,Exist,,PSE,Main,LR,https://www.investing.com/equities/leisure---reso,,12,,,,,,,,,,,,,,,,
107,Lepanto Consolidated Mining Co.,レパントコンソリデーティッドマイニング,,Exist,,PSE,Main,LC,https://www.investing.com/equities/lepanto-cons-a,,12,,,,,,,,,,,,,,,,
108,Liberty Flour Mills Inc.,リバティフロアミルズ,,Exist,,PSE,Main,LFM,https://www.investing.com/equities/lib-flour-mill,,12,,,,,,,,,,,,,,,,
109,LMG Chemicals Corp.,LMGケミカルズ,,Exist,,PSE,Main,LMG,https://www.investing.com/equities/lmg-chemicals,,12,,,,,,,,,,,,,,,,
110,Lodestar Investment Holdings Corp.,ロードスターインベストメントホールディングス,,,証券コード変更,PSE,Main,LIHC,,,12,各ファイルにて修正作業,対象企業の証券コードを最新のものに変更,,,[会社概要作業シート（上場）]の最新データを反映,,,-,,,対象企業の証券コードを最新のものに変更,,,対象企業の証券コードを最新のものに変更,,
111,Lopez Holdings Corp.,ロペスホールディングス,,Exist,,PSE,Main,LPZ,https://www.investing.com/equities/lopez-holdings,,12,,,,,,,,,,,,,,,,
112,Lorenzo Shipping Corp.,ロレンツォシッピンング,,Exist,,PSE,Main,LSC,https://www.investing.com/equities/lorenzo-shippi,,12,,,,,,,,,,,,,,,,
113,LT Group Inc.,LTグループ,,Exist,,PSE,Main,LTG,https://www.investing.com/equities/lt-group,,12,,,,,,,,,,,,,,,,
114,Mabuhay Holdings Corp.,マブハイホールディングス,,Exist,,PSE,Main,MHC,https://www.investing.com/equities/mabuhay-hldgs,,12,,,,,,,,,,,,,,,,
115,Mabuhay Vinyl Corp.,マブハイビニル,,Exist,,PSE,Main,MVC,https://www.investing.com/equities/mabuhay-vinyl,,12,,,,,,,,,,,,,,,,
116,Macay Holdings Inc.,マカイホールディングス,,Exist,,PSE,Main,MACAY,https://www.investing.com/equities/macay-holdings,,12,,,,,,,,,,,,,,,,
117,Macroasia Corp.,マクロアジア,,Exist,,PSE,Main,MAC,https://www.investing.com/equities/macroasia-corp,,12,,,,,,,,,,,,,,,,
118,Makati Finance Corp.,マカティファイナンス,,Exist,,PSE,SME,MFIN,https://www.investing.com/equities/makati-finance-corp,,12,,,,,,,,,,,,,,,,
119,Manila Broadcasting Co.,マニラ・ブロードキャスティング,,Exist,,PSE,Main,MBC,https://www.investing.com/equities/manila-broadcasting-co,,12,,,,,,,,,,,,,,,,
120,Manila Electric Co.,マニラエレクトリック,,Exist,,PSE,Main,MER,https://www.investing.com/equities/manila-electri,,12,,,,,,,,,,,,,,,,
121,Manila Jockey Club Inc.,マニラ・ジョッキー・クラブ,,None,,PSE,Main,MJC,https://www.investing.com/equities/man-jockey-clu,,12,,,,,,,,,,,,,,,,
122,Manila Mining Corp. A,マニラ・マイニングA,,Exist,,PSE,Main,MA,https://www.investing.com/equities/manila-mining,,12,,,,,,,,,,,,,,,,
123,Manila Water Co. Inc.,マニラ・ウォーター,,Exist,,PSE,Main,MWC,https://www.investing.com/equities/manila-water-c,,12,,,,,,,,,,,,,,,,
124,Max's Group Inc.,マックスグループ,,Exist,,PSE,Main,MAXS,https://www.investing.com/equities/pancake-house,,12,,,,,,,,,,,,,,,,
125,Medco Holdings Inc.,メドコ・ホールディングス,,Exist,,PSE,Main,MED,https://www.investing.com/equities/medco-hldgs,,12,,,,,,,,,,,,,,,,
126,Megawide Construction Corp.,メガワイド建設,,Exist,,PSE,Main,MWIDE,https://www.investing.com/equities/megawide-const,,12,,,,,,,,,,,,,,,,
127,MegaWorld Corp.,メガワールド,,Exist,,PSE,Main,MEG,https://www.investing.com/equities/megaworld-corp,,12,,,,,,,,,,,,,,,,
128,Metro Pacific Investments Corp.,メトロ・パシフィック投資,,Exist,,PSE,Main,MPI,https://www.investing.com/equities/metro-pacifi-i,,12,,,,,,,,,,,,,,,,
129,Metro Retail Stores Group Inc.,メトロ・リテールストア・グループ,,Exist,,PSE,Main,MRSGI,https://www.investing.com/equities/metro-retail-stores-group-inc,,12,,,,,,,,,,,,,,,,
130,Metropolitan Bank & Trust Co.,メトロポリタン信託銀行,,Exist,,PSE,Main,MBT,https://www.investing.com/equities/metropolitan-b,,12,,,,,,,,,,,,,,,,
131,Millennium Global Holdings Inc.,ミレニアム・グローバル・ホールディングス,,Exist,,PSE,Main,MG,https://www.investing.com/equities/millennium-glo,,12,,,,,,,,,,,,,,,,
132,MJC Investments Corp.,MJC投資,,None,,PSE,Main,MJIC,https://www.investing.com/equities/mjc-investment,,12,,,,,,,,,,,,,,,,
133,MRC Allied Inc.,MRCアライド,,Exist,,PSE,Main,MRC,https://www.investing.com/equities/mrc-allied-inc,,12,,,,,,,,,,,,,,,,
134,National Reinsurance Corp. of the Philippines,フィリピン・ナショナル再保険,,Exist,,PSE,Main,NRCP,https://www.investing.com/equities/national-reins,,12,,,,,,,,,,,,,,,,
135,Nickel Asia Corp.,ニッケル・アジア,,Exist,,PSE,Main,NIKL,https://www.investing.com/equities/nickel-asia-co,,12,,,,,,,,,,,,,,,,
136,NiHAO Mineral Resources International Inc.,ニーハオ・ミネラル資源インターナショナル,,Exist,,PSE,Main,NI,https://www.investing.com/equities/nihao-mineral,,12,,,,,,,,,,,,,,,,
137,Now Corp.,ナウ,,Exist,,PSE,Main,NOW,https://www.investing.com/equities/now-corporatio,,12,,,,,,,,,,,,,,,,
138,Omico Corp.,オミコ,,Exist,,PSE,Main,OM,https://www.investing.com/equities/omico-corp,,12,,,,,,,,,,,,,,,,
139,Oriental Peninsula Resources Group Inc.,オリエンタル・ペニンシュラ資源グループ,,Exist,,PSE,Main,ORE,https://www.investing.com/equities/oriental-pen,,12,,,,,,,,,,,,,,,,
140,Pacific Online Systems Corp.,パシフィックオンラインシステムス,,Exist,,PSE,Main,LOTO,https://www.investing.com/equities/pacific-online,,12,,,,,,,,,,,,,,,,
141,Pacifica Inc.,パシフィカ,,Exist,,PSE,Main,PA,https://www.investing.com/equities/pacifica,,12,,,,,,,,,,,,,,,,
142,PAL Holdings Inc.,PALホールディングス,,Exist,,PSE,Main,PAL,https://www.investing.com/equities/pal-holdings,,12,,,,,,,,,,,,,,,,
143,Panasonic Manufacturing Philippines Corp.,パナソニックマニュファクチュアリングフィリピンズ,,None,,PSE,Main,PMPC,https://www.investing.com/equities/panasonic-mfg.,,3,,,,,,,,,,,,,,,,
144,Paxys Inc.,パキシーズ,,Exist,,PSE,Main,PAX,https://www.investing.com/equities/paxys-inc,,12,,,,,,,,,,,,,,,,
145,Pepsi-Cola Products Philippines Inc.,ペプシコーラプロダクツフィリピンズ,,,買収,PSE,Main,PIP,https://www.investing.com/equities/pepsi-cola-pro,,,各ファイルにて修正作業,対象企業をグレーアウト,,,対象企業のデータを全て削除,,,-,,,-,,,対象企業のデータを全て削除,,
146,PetroEnergy Resources Corp.,ペトロエナジーリソーシーズ,,Exist,,PSE,Main,PERC,https://www.investing.com/equities/petroenergy-rs,,12,,,,,,,,,,,,,,,,
147,Petron Corp.,ペトロン,,Exist,,PSE,Main,PCOR,https://www.investing.com/equities/petron,,12,,,,,,,,,,,,,,,,
148,Philex Mining Corp.,フィレックス・マイニング,,Exist,,PSE,Main,PX,https://www.investing.com/equities/philex-mining,,12,,,,,,,,,,,,,,,,
149,Philippine Bank of Communications,フィリピンバンクオブコミュニケーションズ,,Exist,,PSE,Main,PBC,https://www.investing.com/equities/phil-bk-of-com,,12,,,,,,,,,,,,,,,,
150,Philippine Business Bank,フィリピンビジネスバンク,,Exist,,PSE,Main,PBB,https://www.investing.com/equities/philippine-bus,,12,,,,,,,,,,,,,,,,
151,Philippine Estates Corp.,フィリピンエステート,,Exist,,PSE,Main,PHES,https://www.investing.com/equities/phil-estates,,12,,,,,,,,,,,,,,,,
152,Philippine National Bank,フィリピンナショナルバンク,,Exist,,PSE,Main,PNB,https://www.investing.com/equities/phil-natl-bank,,12,,,,,,,,,,,,,,,,
153,Philippine Racing Club Inc.,フィリピンレーシングクラブ,,Exist,,PSE,Main,PRC,https://www.investing.com/equities/phil-racing-cl,,12,,,,,,,,,,,,,,,,
154,Philippine Realty & Holdings Corp.,フィリピンリアルティ,,Exist,,PSE,Main,RLT,https://www.investing.com/equities/phi-rlty-hldgs,,12,,,,,,,,,,,,,,,,
155,Philippine Savings Bank,フィリピンセービングバンク,,Exist,,PSE,Main,PSB,https://www.investing.com/equities/phil-savings-b,,12,,,,,,,,,,,,,,,,
156,Philippine Seven Corp.,フィリピンセブン,,Exist,,PSE,Main,SEVN,https://www.investing.com/equities/phil-seven,,12,,,,,,,,,,,,,,,,
157,Philippine Stock Exchange Inc.,フィリピンストックエクスチェンジ,,Exist,,PSE,Main,PSE,https://www.investing.com/equities/phil-stk-exch,,12,,,,,,,,,,,,,,,,
158,Philippine Trust Co.,フィリピントラスト,,Exist,,PSE,Main,PTC,https://www.investing.com/equities/philtrust-bank,,12,,,,,,,,,,,,,,,,
159,Philodrill Corp.,フィロドリル,,Exist,,PSE,Main,OV,https://www.investing.com/equities/philodrill-cor,,12,,,,,,,,,,,,,,,,
160,Philweb Corp.,フィルウェブ,,Exist,,PSE,Main,WEB,https://www.investing.com/equities/philweb-corp,,12,,,,,,,,,,,,,,,,
161,Phinma Corp.,フィンマ,,Exist,,PSE,Main,PHN,https://www.investing.com/equities/phinma,,12,,,,,,,,,,,,,,,,
162,Phoenix Petroleum Philippines Inc.,フェニックス・ペトロリアム・フィリピン,,Exist,,PSE,Main,PNX,https://www.investing.com/equities/phoenix-petro,,12,,,,,,,,,,,,,,,,
163,PLDT Inc.,PLDT,,Exist,,PSE,Main,TEL,https://www.investing.com/equities/phi-long-dis-t,,12,,,,,,,,,,,,,,,,
164,Premiere Horizon Alliance Corp.,プレミア・ホライズン・アライアンス,,Exist,,PSE,Main,PHA,https://www.investing.com/equities/premiere-horiz,,12,,,,,,,,,,,,,,,,
165,Premium Leisure Corp.,プレミアム・レジャー,,Exist,,PSE,Main,PLC,https://www.investing.com/equities/sinophil-corp,,12,,,,,,,,,,,,,,,,
166,Prime Media Holdings Inc.,プライム・メディア・ホールディングス,,Exist,,PSE,Main,PRIM,https://www.investing.com/equities/prime-media-hl,,12,,,,,,,,,,,,,,,,
167,Primex Corp.,プライメックス,,Exist,,PSE,Main,PRMX,https://www.investing.com/equities/primex-corp,,12,,,,,,,,,,,,,,,,
168,Pryce Corp.,プライス,,Exist,,PSE,Main,PPC,https://www.investing.com/equities/pryce-corp,,12,,,,,,,,,,,,,,,,
169,PTFC Redevelopment Corp.,PTFCリデベロップメント,,Exist,,PSE,Main,TFC,https://www.investing.com/equities/ptfc-redevelopment-corp,,8,,,,,,,,,,,,,,,,
170,Puregold Price Club Inc.,ピュアゴールド・プライスクラブ,,Exist,,PSE,Main,PGOLD,https://www.investing.com/equities/puregold-price,,12,,,,,,,,,,,,,,,,
171,PXP Energy Corp.,PXPエナジー,,Exist,,PSE,Main,PXP,https://www.investing.com/equities/philex-petrole,,12,,,,,,,,,,,,,,,,
172,Republic Glass Holdings Corp.,リパブリック・グラス・ホールディングス,,Exist,,PSE,Main,REG,https://www.investing.com/equities/rep-glass-hldg,,12,,,,,,,,,,,,,,,,
173,RFM Corp.,RFM,,None,,PSE,Main,RFM,https://www.investing.com/equities/rfm,,12,,,,,,,,,,,,,,,,
174,Rizal Commercial Banking Corp. A,リサール商業銀行,,Exist,,PSE,Main,RCB,https://www.investing.com/equities/rizal-comml-b,,12,,,,,,,,,,,,,,,,
175,Robinsons Land Corp.,ロビンソンズ ランド,,Exist,,PSE,Main,RLC,https://www.investing.com/equities/robinsons-land,,12,,,,,,,,,,,,,,,,
176,Robinsons Retail Holdings Inc.,ロビンソンズ・リテール・ホールディングス,,Exist,,PSE,Main,RRHI,https://www.investing.com/equities/robinsons-reta,,12,,,,,,,,,,,,,,,,
177,Rockwell Land Corp.,ロックウェル・ランド,,Exist,,PSE,Main,ROCK,https://www.investing.com/equities/rockwell-land,,12,,,,,,,,,,,,,,,,
178,Roxas & Co. Inc.,ロクサス,,Exist,,PSE,Main,RCI,https://www.investing.com/equities/roxas---co,,12,,,,,,,,,,,,,,,,
179,Roxas Holdings Inc.,ロクサス・ホールディングス,,Exist,,PSE,Main,ROX,https://www.investing.com/equities/roxas-holdings,,9,,,,,,,,,,,,,,,,
180,San Miguel Corp.,サン・ミゲル,,Exist,,PSE,Main,SMC,https://www.investing.com/equities/san-miguel-cor,,12,,,,,,,,,,,,,,,,
181,SBS Philippines Corp.,SBSフィリピンズ,,Exist,,PSE,Main,SBS,https://www.investing.com/equities/sbs-philippines-corp,,12,,,,,,,,,,,,,,,,
182,Seafront Resources Corp.,シーフロント・リソース,,Exist,,PSE,Main,SPM,https://www.investing.com/equities/seafront-rsc,,12,,,,,,,,,,,,,,,,
183,Security Bank Corp.,セキュリティバンク,,Exist,,PSE,Main,SECB,https://www.investing.com/equities/security-bnk,,12,,,,,,,,,,,,,,,,
184,Semirara Mining & Power Corp.,セミララ・マイニング・アンド・パワー,,Exist,,PSE,Main,SCC,https://www.investing.com/equities/semirara-minin,,12,,,,,,,,,,,,,,,,
185,Shang Properties Inc.,シャン・プロパティーズ,,Exist,,PSE,Main,SHNG,https://www.investing.com/equities/shang-properti,,12,,,,,,,,,,,,,,,,
186,SM Investments Corp.,SMインベストメンツ,,Exist,,PSE,Main,SM,https://www.investing.com/equities/sm-investment,,12,,,,,,,,,,,,,,,,
187,SM Prime Holdings Inc.,SMプライム・ホールディングス,,Exist,,PSE,Main,SMPH,https://www.investing.com/equities/sm-prime-hldgs,,12,,,,,,,,,,,,,,,,
188,SOCResources Inc.,SOCリソーシーズ,,None,,PSE,Main,SOC,https://www.investing.com/equities/south-china-pe,,12,,,,,,,,,,,,,,,,
189,SSI Group Inc.,SSI グループ,,Exist,,PSE,Main,SSI,https://www.investing.com/equities/ssi-group-inc,,12,,,,,,,,,,,,,,,,
190,Sta. Lucia Land Inc.,サンタ・ルシア・ランド,,Exist,,PSE,Main,SLI,https://www.investing.com/equities/sta-lucia-land,,12,,,,,,,,,,,,,,,,
191,Starmalls Inc.,スターモールズ,,Exist,,PSE,Main,STR,https://www.investing.com/equities/starmalls,,12,,,,,,,,,,,,,,,,
192,STI Education Systems Holdings Inc.,STIエデュケーション・システムズ・ホールディングス,,Exist,,PSE,Main,STI,https://www.investing.com/equities/sti-education,,3,,,,,,,,,,,,,,,,
193,Suntrust Home Developers Inc.,サントラスト・ホーム・デベロッパーズ,,Exist,,PSE,Main,SUN,https://www.investing.com/equities/suntrust-home,,12,,,,,,,,,,,,,,,,
194,TKC Metals Corp.,TKCメタルズ,,Exist,,PSE,Main,T,https://www.investing.com/equities/tkc-steel-corp,,12,,,,,,,,,,,,,,,,
195,Top Frontier Investment Holdings Inc.,トップ・フロンティア・インベストメント・ホールディングス,,Exist,,PSE,Main,TFHI,https://www.investing.com/equities/top-frontier-i,,12,,,,,,,,,,,,,,,,
196,Transpacific Broadband Group International Inc.,トランスパシフィック・ブロードバンド・グループ・インターナショナル,,Exist,,PSE,Main,TBGI,https://www.investing.com/equities/transpac-brdca,,12,,,,,,,,,,,,,,,,
197,Travellers International Hotel Group Inc.,トラベラーズ・インターナショナル・ホテル・グループ,,,上場廃止,PSE,Main,RWM,https://www.investing.com/equities/travellers-hot,,,各ファイルにて修正作業,対象企業をグレーアウト,,,対象企業のデータを全て削除,,,対象企業のデータを追加,,,-,,,対象企業のデータを全て削除,,
198,Union Bank of the Philippines,ユニオン・バンク・オブ・フィリピン,,Exist,,PSE,Main,UBP,https://www.investing.com/equities/union-bank-ps,,12,,,,,,,,,,,,,,,,
199,United Paragon Mining Corp.,ユナイテッド・パラゴン・マイニング,,Exist,,PSE,Main,UPM,https://www.investing.com/equities/united-paragon,,12,,,,,,,,,,,,,,,,
200,Universal Robina Corp.,ユニバーサル・ロビーナ,,Exist,,PSE,Main,URC,https://www.investing.com/equities/universal-robi,,12,,,,,,,,,,,,,,,,
201,Vantage Equities Inc.,ヴァンテージ・エクイティーズ,,Exist,,PSE,Main,V,https://www.investing.com/equities/vantage-equiti,,12,,,,,,,,,,,,,,,,
202,Victorias Milling Co. Inc.,ヴィクトリアズ・マイニング,,Exist,,PSE,Main,VMC,https://www.investing.com/equities/victorias-mill,,8,,,,,,,,,,,,,,,,
203,Vista Land & Lifescapes Inc.,ビスタ・ランド・アンド・ライフスケープス,,Exist,,PSE,Main,VLL,https://www.investing.com/equities/vista-land,,12,,,,,,,,,,,,,,,,
204,Vitarich Corp.,バイタリッチ,,Exist,,PSE,Main,VITA,https://www.investing.com/equities/vitarich-corp,,12,,,,,,,,,,,,,,,,
205,Vivant Corp.,ヴィヴァン,,Exist,,PSE,Main,VVT,https://www.investing.com/equities/vivant-corp,,12,,,,,,,,,,,,,,,,
206,Vulcan Industrial & Mining Corp.,バルカン・インダストリアル・マイニング,,Exist,,PSE,Main,VUL,https://www.investing.com/equities/vulcan-inds,,12,,,,,,,,,,,,,,,,
207,Waterfront Philippines Inc.,ウォーターフロント・フィリピン,,Exist,,PSE,Main,WPI,https://www.investing.com/equities/waterfront-phi,,12,,,,,,,,,,,,,,,,
208,Wellex Industries Inc.,ウェレクス・インダストリーズ,,Exist,,PSE,Main,WIN,https://www.investing.com/equities/wellex-inds,,12,,,,,,,,,,,,,,,,
209,Xurpas Inc.,サーパス,,,取引停止中,PSE,SME,X,https://www.investing.com/equities/xurpas-inc,,12,"詳細を調べた後、エラータイプを分類
→各ファイルにて修正作業",,,,,,,,,,,,,,,
210,Zeus Holdings Inc.,ゼウス・ホールディングス,,Exist,,PSE,Main,ZHI,https://www.investing.com/equities/zeus-holdings,,12,,,,,,,,,,,,,,,,
211,Oriental Petroleum & Minerals Corp.,オリエンタルペトロレアム＆ミネラル,,Exist,,PSE,Main,OPM,https://www.investing.com/equities/oriental-petr,,12,,,,,,,,,,,,,,,,
212,Manila Bulletin Publishing Corporation,マニラ 広報出版,,Exist,,PSE,Main,MB,https://www.investing.com/equities/manila-bulleti,,12,,,,,,,,,,,,,,,,
213,Metro Alliance Holdings & Equities Corp.,メトロ・アライアンス・ホールディングス,,None,,PSE,Main,MAH,×,,12,,,,,,,,,,,,,,,,
214,"IPM Holdings, Inc.",IPMホールディングス,,Exist,,PSE,Main,IPM,https://www.investing.com/equities/minerales-ind,,12,,,,,,,,,,,,,,,,
215,Philippine National Construction Corporation,フィリピン・ナショナル建設,,,取引停止中,PSE,Main,PNC,,,12,"詳細を調べた後、エラータイプを分類
→各ファイルにて修正作業",,,,,,,,,,,,,,,
216,AyalaLand Logistics Holdings Corp.,アヤラランド・ロジスティクス,,Exist,,PSE,Main,ALLHC,https://www.investing.com/equities/prime-orion-ph,,12,,,,,,,,,,,,,,,,
217,Allied Banking Corporation,アライド・バンキング,,,上場廃止,PSE,Main,ABC,,,,各ファイルにて修正作業,対象企業をグレーアウト,,,対象企業のデータを全て削除,,,対象企業のデータを追加,,,-,,,対象企業のデータを全て削除,,
218,Asia Amalgamated Holdings Corporation,アジア・アマルガメイト・ホールディングス,,,取引停止中,PSE,Main,AAA,https://www.investing.com/equities/asia-amal-hldg,,12,"詳細を調べた後、エラータイプを分類
→各ファイルにて修正作業",,,,,,,,,,,,,,,
219,Philippine Telegraph & Telephone Corp.,フィリピン・テレグラフ・アンド・テレフォン,,,取引停止中,PSE,Main,PTT,,,12,"詳細を調べた後、エラータイプを分類
→各ファイルにて修正作業",,,,,,,,,,,,,,,
220,Filsyn Corporation,フィルシン,,,取引停止中,PSE,Main,FYN,,,12,"詳細を調べた後、エラータイプを分類
→各ファイルにて修正作業",,,,,,,,,,,,,,,
221,"Ginebra San Miguel, Inc.",ジネブラ・サンミゲル,,Exist,,PSE,Main,GSMI,https://www.investing.com/equities/ginebra-san-mi,,12,,,,,,,,,,,,,,,,
222,Philcomsat Holdings Corporation,フィルコムサット・ホールディングス,,,取引停止中,PSE,Main,PHC,,,12,"詳細を調べた後、エラータイプを分類
→各ファイルにて修正作業",,,,,,,,,,,,,,,
223,"Picop Resources, Inc.",ピコップ・リソース,,,取引停止中,PSE,Main,PCP,,,,"詳細を調べた後、エラータイプを分類
→各ファイルにて修正作業",,,,,,,,,,,,,,,
224,"Primetown Property Group, Inc.",プライムタウン不動産,,,取引停止中,PSE,Main,PMT,,,12,"詳細を調べた後、エラータイプを分類
→各ファイルにて修正作業",,,,,,,,,,,,,,,
225,Alphaland Corporation,アルファランド,,,上場廃止,PSE,Main,ALPHA,,,,各ファイルにて修正作業,対象企業をグレーアウト,,,対象企業のデータを全て削除,,,対象企業のデータを追加,,,-,,,対象企業のデータを全て削除,,
226,"Globalport 900, Inc.",グローバルポート900,,,取引停止中,PSE,Main,PORT,,,12,"詳細を調べた後、エラータイプを分類
→各ファイルにて修正作業",,,,,,,,,,,,,,,
227,Greenergy Holdings Incorporated,グリーンエナジー,,Exist,,PSE,Main,GREEN,https://www.investing.com/equities/greenergy-hlds,,12,,,,,,,,,,,,,,,,
228,"Republic Cement & Building Materials, Inc.",リパブリック・セメント建設資材,,,買収,PSE,Main,LRI,,,,各ファイルにて修正作業,対象企業をグレーアウト,,,対象企業のデータを全て削除,,,-,,,-,,,対象企業のデータを全て削除,,
229,SM Development Corporation,SMデベロップメント,,,買収,PSE,Main,SMDC,,,,各ファイルにて修正作業,対象企業をグレーアウト,,,対象企業のデータを全て削除,,,-,,,-,,,対象企業のデータを全て削除,,
230,Steniel Manufacturing Corporate,スチニール・マニュファクチャリング,,,取引停止中,PSE,Main,STN,,,12,"詳細を調べた後、エラータイプを分類
→各ファイルにて修正作業",,,,,,,,,,,,,,,
231,NextGenesis Corporation,ネクスト・ジェネシス,,,取引停止中,PSE,Main,NXGEN,,,6,"詳細を調べた後、エラータイプを分類
→各ファイルにて修正作業",,,,,,,,,,,,,,,
232,Cebu Property Ventures and Development Corporation,セブ・プロパティ・ベンチャー開発,,,取引停止中,PSE,Main,CPV,https://www.investing.com/equities/cebu-prop-vent,,12,"詳細を調べた後、エラータイプを分類
→各ファイルにて修正作業",,,,,,,,,,,,,,,
233,Metro Global Holdings Corporation,メトロ・グローバル,,,取引停止中,PSE,Main,MGH,,,12,"詳細を調べた後、エラータイプを分類
→各ファイルにて修正作業",,,,,,,,,,,,,,,
234,Melco Resorts and Entertainment Corporation,メルコ・リゾート・エンターテイメント,,,null,PSE,Main,MLCO,,,,"詳細を調べた後、エラータイプを分類
→各ファイルにて修正作業",,,,,,,,,,,,,,,
235,"AC Energy Philippines, Inc.",ACエナジー・フィリピン,,Exist,,PSE,Main,ACEN,https://www.investing.com/equities/transasia-oil,,12,,,,,,,,,,,,,,,,
236,SPC Power Corporation,SPCパワー建設,,Exist,,PSE,Main,SPC,https://www.investing.com/equities/spc-power-corp,,12,,,,,,,,,,,,,,,,
237,Jolliville Holdings Corporation,ジョリビレ・ホールディングス,,Exist,,PSE,Main,JOH,https://www.investing.com/equities/jolliville-hld,,12,,,,,,,,,,,,,,,,
238,Supercity Realty Development Corporation,スーパーシティ・リアルティ開発,,None,,PSE,Main,SRDC,×,,12,,,,,,,,,,,,,,,,
239,Energy Development Corporation,エネルギー開発,,,上場廃止,PSE,Main,EDC,,,12,各ファイルにて修正作業,対象企業をグレーアウト,,,対象企業のデータを全て削除,,,対象企業のデータを追加,,,-,,,対象企業のデータを全て削除,,
240,Splash Corporation,スプラッシュ,,,上場廃止,PSE,Main,SPH,,,,各ファイルにて修正作業,対象企業をグレーアウト,,,対象企業のデータを全て削除,,,対象企業のデータを追加,,,-,,,対象企業のデータを全て削除,,
241,Philab Holdings Corp.,フィラブ・ホールディングス,,,取引停止中,PSE,SME,DNA,https://www.investing.com/equities/alterra-capital-partners-inc,,12,"詳細を調べた後、エラータイプを分類
→各ファイルにて修正作業",,,,,,,,,,,,,,,
242,Cirtek Holdings Philippines Corporation,サーテック・ホールディングス,,Exist,,PSE,Main,TECH,https://www.investing.com/equities/cirtek-hold-co,,12,,,,,,,,,,,,,,,,
243,"PH Resorts Group Holdings, Inc.",PHリゾートグループ,,Exist,,PSE,Main,PHR,https://www.investing.com/equities/calapan-ventu,,12,,,,,,,,,,,,,,,,
244,"Apollo Global Capital, Inc.",アポロ・グローバル・キャピタル,,Exist,,PSE,Main,APL,https://www.investing.com/equities/yehey-corp,,12,,,,,,,,,,,,,,,,
245,"Ferronoux Holdings, Inc.",フェロノックス・ホールディングス,,Exist,,PSE,Main,FERRO,https://www.investing.com/equities/ag-finance-inc,,12,,,,,,,,,,,,,,,,
246,"ACE Enexor, Inc.",エース・エネクサー,,Exist,,PSE,Main,ACEX,https://www.investing.com/equities/trans-asia-petroleum-corp,,12,,,,,,,,,,,,,,,,
247,SFA Semicon Philippines Corporation,SFAセミコン・フィリピン,,Exist,,PSE,Main,SSP,https://www.investing.com/equities/phoenix-semiconductor-ps-corp,,12,,,,,,,,,,,,,,,,
248,Pilipinas Shell Petroleum Corporation,フィリピナス・シェル石油,,Exist,,PSE,Main,SHLPH,https://www.investing.com/equities/pilipinas-shell-petroleum-corp,,12,,,,,,,,,,,,,,,,
249,"Shakey Pizza Asia Ventures, Inc.",シェーキー・ピザ・アジア,,Exist,,PSE,Main,PIZZA,https://www.investing.com/equities/shakey%E2%80%99s-pizza-asia-ventures-inc,,12,,,,,,,,,,,,,,,,
250,"Wilcon Depot, Inc.,",ウィルコム・デポ,,Exist,,PSE,Main,WLCON,https://www.investing.com/equities/wilcon-depot-inc,,12,,,,,,,,,,,,,,,,
251,Eagle Cement Corporation,イーグル・セメント,,Exist,,PSE,Main,EAGLE,https://www.investing.com/equities/eagle-cement-corp,,12,,,,,,,,,,,,,,,,
252,"Cebu Landmasters, Inc.",セブ・ランドマスター,,Exist,,PSE,Main,CLI,https://www.investing.com/equities/cebu-landmasters-inc,,12,,,,,,,,,,,,,,,,
253,Chelsea Logistics and Infrastructure Holdings Corp.,チェルシー・ロジスティクス・インフラ,,Exist,,PSE,Main,C,https://www.investing.com/equities/chelsea-logistics,,12,,,,,,,,,,,,,,,,
254,"D.M. Wenceslao & Associates, Incorporated",D.M.ウェンシスラオ・アソシエイツ,,Exist,,PSE,Main,DMW,https://www.investing.com/equities/dm-wenceslao-associates,,12,,,,,,,,,,,,,,,,
255,"Kepwealth Property Phils., Inc.",ケップウェルス不動産・フィリピン,,None,,PSE,SME,KPPI,https://www.investing.com/equities/kepwealth-property-phils,,12,,,,,,,,,,,,,,,,
256,Axelum Resources Corp.,アクセラム・リソース,,Exist,,PSE,Main,AXLM,https://www.investing.com/equities/axelum-resources-otc,,12,,,,,,,,,,,,,,,,
257,AllHome Corp.,オールホーム,,Exist,,PSE,Main,HOME,https://www.investing.com/equities/allhome-corp,,12,,,,,,,,,,,,,,,,
258,"Fruitas Holdings, Inc.",フルータス・ホールディングス,,Exist,,PSE,Main,FRUIT,https://www.investing.com/equities/fruitas-holdings-inc,,12,,,,,,,,,,,,,,,,
259,Asiabest Group International Inc.,アジアベスト・グループ・インターナショナル,,Exist,,PSE,Main,ABG,https://www.investing.com/equities/asiabest-group,,12,,,,,,,,,,,,,,,,
260,Bogo-Medellin Milling Co. Inc.,ボゴ・メデリン製粉,,,取引停止中,PSE,Main,BMM,https://www.investing.com/equities/bogo-medell-mi,,9,"詳細を調べた後、エラータイプを分類
→各ファイルにて修正作業",,,,,,,,,,,,,,,
261,San Miguel Food & Beverage Inc.,サン・ミゲル・フード・アンド・ビバレッジ,,Exist,,PSE,Main,FB,https://www.investing.com/equities/s-m-pure-foods,,12,,,,,,,,,,,,,,,,
262,Synergy Grid & Development Philippines Inc.,シナジー・グリッド・アンド・デベロップメント・フィリピン,,Exist,,PSE,Main,SGP,https://www.investing.com/equities/synergy-grid-d,,12,,,,,,,,,,,,,,,,