Company Name,Stock Symbol,Sector,Subsector,Listing Date
"2GO Group, Inc.",2GO,Services,Transportation Services,15-May-95
Asia Amalgamated Holdings Corporation,AAA,Holding Firms,Holding Firms,22-Mar-73
"Atok-Big Wedge Co., Inc.",AB,Mining and Oil,Mining,8-Jan-48
"AbaCore Capital Holdings, Inc.",ABA,Holding Firms,Holding Firms,28-Oct-87
Asiabest Group International Inc.,ABG,Holding Firms,Holding Firms,10-Jul-79
ABS-CBN Corporation,ABS,Services,Media,8-Jul-92
ABS-CBN Holdings Corporation,ABSP,Services,Media,7-Oct-99
Ayala Corporation,AC,Holding Firms,Holding Firms,8-Nov-76
Acesite (Phils.) Hotel Corporation,ACE,Services,Hotel & Leisure,5-Dec-86
AC Energy Corporation,ACEN,Industrial,"Electricity, Energy, Power & Water",5-Jan-70
"ACE Enexor, Inc.",ACEX,Mining and Oil,Oil,28-Aug-14
"Alsons Consolidated Resources, Inc.",ACR,Industrial,"Electricity, Energy, Power & Water",12-Apr-93
"Aboitiz Equity Ventures, Inc.",AEV,Holding Firms,Holding Firms,16-Nov-94
"Alliance Global Group, Inc.",AGI,Holding Firms,Holding Firms,19-Apr-99
Arthaland Corporation,ALCO,Property,Property,19-Mar-96
"Anchor Land Holdings, Inc.",ALHI,Property,Property,8-Aug-07
"Ayala Land, Inc.",ALI,Property,Property,5-Jul-91
AyalaLand Logistics Holdings Corp.,ALLHC,Holding Firms,Holding Firms,28-Feb-90
"AgriNurture, Inc.",ANI,Industrial,"Food, Beverage & Tobacco",25-May-09
A. Soriano Corporation,ANS,Holding Firms,Holding Firms,25-Oct-73
Aboitiz Power Corporation,AP,Industrial,"Electricity, Energy, Power & Water",16-Jul-07
"APC Group, Inc.",APC,Services,Other Services,8-Mar-94
"Apollo Global Capital, Inc.",APL,Services,Information Technology,18-Oct-12
Anglo Philippine Holdings Corporation,APO,Holding Firms,Holding Firms,31-Jul-59
"Altus Property Ventures, Inc.",APVI,SME,SME,26-Jun-20
"Apex Mining Co., Inc.",APX,Mining and Oil,Mining,7-Mar-74
Abra Mining and Industrial Corporation,AR,Mining and Oil,Mining,24-Dec-69
"Araneta Properties, Inc.",ARA,Property,Property,14-Nov-89
"AREIT, Inc.",AREIT,Property,Property,13-Aug-20
Atlas Consolidated Mining and Development Corporation,AT,Mining and Oil,Mining,17-Nov-70
"Asian Terminals, Inc.",ATI,Services,Transportation Services,25-Jan-96
"ATN Holdings, Inc.",ATN,Holding Firms,Holding Firms,24-Sep-70
Asia United Bank Corporation,AUB,Financials,Banks,17-May-13
Axelum Resources Corp.,AXLM,Industrial,"Food, Beverage & Tobacco",7-Oct-19
Benguet Corporation,BC,Mining and Oil,Mining,4-Jan-50
Berjaya Philippines Inc.,BCOR,Services,Casinos & Gaming,29-Nov-48
"BDO Unibank, Inc.",BDO,Financials,Banks,21-May-02
Belle Corporation,BEL,Property,Property,2-Feb-77
"BHI Holdings, Inc.",BH,Holding Firms,Holding Firms,2-Apr-73
"Boulevard Holdings, Inc.",BHI,Services,Hotel & Leisure,28-Apr-97
Bright Kindle Resources & Investments Inc.,BKR,Financials,Other Financial Institutions,21-Mar-95
"BDO Leasing and Finance, Inc.",BLFI,Financials,Other Financial Institutions,6-Jan-97
Bloomberry Resorts Corporation,BLOOM,Services,Casinos & Gaming,17-Oct-00
"Bogo-Medellin Milling Company, Inc.",BMM,Industrial,"Food, Beverage & Tobacco",16-Nov-50
Bank of the Philippine Islands,BPI,Financials,Banks,12-Oct-71
"A Brown Company, Inc.",BRN,Property,Property,8-Feb-94
Basic Energy Corporation,BSC,Industrial,"Electricity, Energy, Power & Water",16-Oct-73
Chelsea Logistics and Infrastructure Holdings Corp.,C,Services,Transportation Services,8-Aug-17
Concrete Aggregates Corporation,CA,Industrial,"Construction, Infra. & Allied Services",20-Oct-72
"Central Azucarera de Tarlac, Inc.",CAT,Industrial,"Food, Beverage & Tobacco",12-Apr-77
Cityland Development Corporation,CDC,Property,Property,2-Aug-83
"Cebu Air, Inc.",CEB,Services,Transportation Services,26-Oct-10
"Crown Equities, Inc.",CEI,Property,Property,16-Aug-94
Centro Escolar University,CEU,Services,Education,10-Nov-86
"Cebu Holdings, Incorporated",CHI,Property,Property,14-Feb-94
China Banking Corporation,CHIB,Financials,Banks,1-Sep-27
"Cemex Holdings Philippines, Inc.",CHP,Industrial,"Construction, Infrastructure & Allied Services",18-Jul-16
Concepcion Industrial Corporation,CIC,Industrial,Electrical Components & Equipment,27-Nov-13
"Chemical Industries of the Philippines, Inc.",CIP,Industrial,Chemicals,21-Nov-85
"Cebu Landmasters, Inc.",CLI,Property,Property,2-Jun-17
"Century Pacific Food, Inc.",CNPF,Industrial,"Food, Beverage & Tobacco",6-May-14
"Converge Information and Communications Technology Solutions, Inc.",CNVRG,Services,Information and Technology,26-Oct-20
Coal Asia Holdings Incorporated,COAL,Mining and Oil,Mining,23-Oct-12
"COL Financial Group, Inc.",COL,Financials,Other Financial Institutions,12-Jul-06
"Cosco Capital, Inc.",COSCO,Holding Firms,Holding Firms,26-Sep-88
"Century Properties Group, Inc.",CPG,Property,Property,16-Jun-76
Century Peak Holdings Corporation,CPM,Mining and Oil,Mining,6-Oct-09
Crown Asia Chemicals Corporation,CROWN,Industrial,Chemicals,27-Apr-15
"Citystate Savings Bank, Inc.",CSB,Financials,Banks,3-Jan-02
Cyber Bay Corporation,CYBR,Property,Property,19-Mar-91
"Da Vinci Capital Holdings, Inc.",DAVIN,Industrial,"Construction, Infra. & Allied Services",3-Sep-91
DoubleDragon Properties Corp.,DD,Property,Property,7-Apr-14
"DDMP REIT, Inc.",DDMPR,Property,Property,24-Mar-21
Del Monte Pacific Limited,DELM,Industrial,"Food, Beverage & Tobacco",10-Jun-13
"DFNN, Inc.",DFNN,Services,Information Technology,30-Oct-00
DITO CME Holdings Corp.,DITO,Services,Information Technology,1-Oct-75
"Dizon Copper-Silver Mines, Inc.",DIZ,Mining and Oil,Mining,10-Feb-88
"DMCI Holdings, Inc.",DMC,Holding Firms,Holding Firms,18-Dec-95
"D.M. Wenceslao & Associates, Incorporated",DMW,Property,Property,29-Jun-18
Philab Holdings Corp.,DNA,"Small, Medium & Emerging Board","Small, Medium & Emerging Board",3-Sep-09
"D&L Industries, Inc.",DNL,Industrial,"Food, Beverage & Tobacco",12-Dec-12
Discovery World Corporation,DWC,Services,Hotel & Leisure,21-Nov-13
Eagle Cement Corporation,EAGLE,Industrial,"Construction, Infrastructure & Allied Services",29-May-17
"EasyCall Communications Philippines, Inc.",ECP,Services,Other Services,5-May-92
EEI Corporation,EEI,Industrial,"Construction, Infra. & Allied Services",21-Jul-75
"IP E-Game Ventures, Inc.",EG,Services,Casinos & Gaming,17-Feb-10
"Empire East Land Holdings, Inc.",ELI,Property,Property,28-Jun-96
Emperador Inc.,EMP,Industrial,"Food, Beverage & Tobacco",19-Dec-11
"Euro-Med Laboratories Phil., Inc.",EURO,Industrial,Chemicals,2-Jul-98
"Ever-Gotesco Resources and Holdings, Inc.",EVER,Property,Property,16-Sep-96
East West Banking Corporation,EW,Financials,Banks,7-May-12
First Abacus Financial Holdings Corporation,FAF,Financials,Other Financial Institutions,17-Nov-94
"San Miguel Food and Beverage, Inc.",FB,Industrial,"Food, Beverage & Tobacco",2-Apr-73
Filinvest Development Corporation,FDC,Holding Firms,Holding Firms,22-Dec-82
"Ferronoux Holdings, Inc.",FERRO,Financials,Other Financial Institutions,13-Aug-13
"Far Eastern University, Incorporated",FEU,Services,Education,11-Jul-86
"Filipino Fund, Inc.",FFI,Financials,Other Financial Institutions,27-Sep-95
First Gen Corporation,FGEN,Industrial,"Electricity, Energy, Power & Water",10-Feb-06
F & J Prince Holdings Corporation,FJP,Holding Firms,Holding Firms,8-Dec-82
"Filinvest Land, Inc.",FLI,Property,Property,25-Oct-93
"First Metro Philippine Equity Exchange Traded Fund, Inc.",FMETF,ETF-Equity,ETF-Equity,2-Dec-13
"Global Ferronickel Holdings, Inc.",FNI,Mining and Oil,Mining,14-Dec-94
"Alliance Select Foods International, Inc.",FOOD,Industrial,"Food, Beverage & Tobacco",8-Nov-06
First Philippine Holdings Corporation,FPH,Industrial,"Electricity, Energy, Power & Water",23-May-63
"Forum Pacific, Inc.",FPI,Holding Firms,Holding Firms,19-Dec-94
"Fruitas Holdings, Inc.",FRUIT,Industrial,"Food, Beverage & Tobacco",29-Nov-19
Filsyn Corporation,FYN,Industrial,Other Industrials,3-Jun-75
"GEOGRACE Resources Philippines, Inc.",GEO,Mining and Oil,Mining,7-Feb-72
"Global-Estate Resorts, Inc.",GERI,Property,Property,23-Nov-95
"Globe Telecom, Inc.",GLO,Services,Telecommunications,11-Aug-75
"GMA Network, Inc.",GMA7,Services,Media,30-Jul-07
"GMA Holdings, Inc.",GMAP,Services,Media,30-Jul-07
Grand Plaza Hotel Corporation,GPH,Services,Hotel & Leisure,10-Dec-92
Greenergy Holdings Incorporated,GREEN,Industrial,Electrical Components & Equipment,26-Sep-96
"Ginebra San Miguel, Inc.",GSMI,Industrial,"Food, Beverage & Tobacco",18-Apr-95
"GT Capital Holdings, Inc.",GTCAP,Holding Firms,Holding Firms,20-Apr-12
"House of Investments, Inc.",HI,Holding Firms,Holding Firms,2-Jul-62
"Holcim Philippines, Inc.",HLCM,Industrial,"Construction, Infra. & Allied Services",17-Jun-96
AllHome Corp.,HOME,Services,Retail,10-Oct-19
"8990 Holdings, Inc.",HOUSE,Property,Property,9-Dec-10
"Golden MV Holdings, Inc.",HVN,Services,Other Services,29-Jun-16
"I-Remit, Inc.",I,Financials,Other Financial Institutions,17-Oct-07
"International Container Terminal Services, Inc.",ICT,Services,Transportation Services,23-Mar-92
Italpinas Development Corporation,IDC,"Small, Medium & Emerging Board","Small, Medium & Emerging Board",7-Dec-15
"Integrated Micro-Electronics, Inc.",IMI,Industrial,Electrical Components & Equipment,21-Jan-10
"Imperial Resources, Inc.",IMP,Services,Information Technology,31-Aug-70
"Ionics, Inc.",ION,Industrial,Electrical Components & Equipment,18-Jul-95
"IPM Holdings, Inc.",IPM,Services,Other Services,17-Jun-98
"iPeople, inc.",IPO,Services,Education,24-Jan-90
"Philippine Infradev Holdings, Inc.",IRC,Property,Property,27-Feb-78
"Island Information & Technology, Inc.",IS,Services,Information Technology,6-Dec-88
"Jackstones, Inc.",JAS,Services,Information Technology,27-Oct-67
Jollibee Foods Corporation,JFC,Industrial,"Food, Beverage & Tobacco",14-Jul-93
"JG Summit Holdings, Inc.",JGS,Holding Firms,Holding Firms,9-Aug-93
Jolliville Holdings Corporation,JOH,Holding Firms,Holding Firms,17-Jun-02
"Keppel Philippines Properties, Inc.",KEP,Property,Property,11-Sep-89
"Keppel Philippines Holdings, Inc.",KPH,Holding Firms,Holding Firms,26-Aug-87
"Kepwealth Property Phils., Inc.",KPPI,"Small, Medium & Emerging Board","Small, Medium & Emerging Board",19-Aug-19
"City & Land Developers, Incorporated",LAND,Property,Property,13-Dec-99
"LBC Express Holdings, Inc.",LBC,Services,Transportation Services,21-Dec-01
Lepanto Consolidated Mining Company,LC,Mining and Oil,Mining,30-Apr-47
"Liberty Flour Mills, Inc.",LFM,Industrial,"Food, Beverage & Tobacco",25-Apr-85
LMG Corp.,LMG,Industrial,Chemicals,7-Jan-86
Lodestar Investment Holdings Corporation,LODE,Holding Firms,Holding Firms,26-May-89
Pacific Online Systems Corporation,LOTO,Services,Casinos & Gaming,12-Apr-07
Lopez Holdings Corporation,LPZ,Holding Firms,Holding Firms,25-Nov-93
Leisure & Resorts World Corporation,LR,Services,Casinos & Gaming,17-Apr-58
Lorenzo Shipping Corporation,LSC,Services,Transportation Services,22-Jul-96
"LT Group, Inc.",LTG,Holding Firms,Holding Firms,7-Nov-47
Manila Mining Corporation,MA,Mining and Oil,Mining,17-Dec-59
MacroAsia Corporation,MAC,Services,Transportation Services,21-May-70
"Macay Holdings, Inc.",MACAY,Industrial,"Food, Beverage & Tobacco",28-Jan-87
Metro Alliance Holdings & Equities Corp.,MAH,Services,Transportation Services,8-Dec-47
"Marcventures Holdings, Inc.",MARC,Mining and Oil,Mining,10-Jan-58
"Max's Group, Inc.",MAXS,Industrial,"Food, Beverage & Tobacco",15-Dec-00
Manila Bulletin Publishing Corporation,MB,Services,Media,18-Apr-90
Manila Broadcasting Company,MBC,Services,Media,8-Oct-49
Metropolitan Bank & Trust Company,MBT,Financials,Banks,26-Feb-81
"MEDCO Holdings, Inc.",MED,Financials,Other Financial Institutions,18-Nov-75
Megaworld Corporation,MEG,Property,Property,15-Jun-94
Manila Electric Company,MER,Industrial,"Electricity, Energy, Power & Water",8-Jan-92
Manulife Financial Corporation,MFC,Financials,Other Financial Institutions,27-Sep-99
Makati Finance Corporation,MFIN,"Small, Medium & Emerging Board","Small, Medium & Emerging Board",6-Jan-03
"Millennium Global Holdings, Inc.",MG,Industrial,"Food, Beverage & Tobacco",1-Mar-76
Metro Global Holdings Corporation,MGH,Holding Firms,Holding Firms,4-May-64
Mabuhay Holdings Corporation,MHC,Holding Firms,Holding Firms,22-Oct-90
"Manila Jockey Club, Inc.",MJC,Services,Casinos & Gaming,11-Oct-63
MJC Investments Corporation,MJIC,Holding Firms,Holding Firms,11-Nov-55
MerryMart Consumer Corp.,MM,SME,SME,15-Jun-20
Monde Nissin Corporation,MONDE,Industrial,"Food, Beverage & Tobacco",1-Jun-21
Metro Pacific Investments Corporation,MPI,Holding Firms,Holding Firms,15-Dec-06
"MRC Allied, Inc.",MRC,Property,Property,18-May-95
"Metro Retail Stores Group, Inc.",MRSGI,Services,Retail,24-Nov-15
Mabuhay Vinyl Corporation,MVC,Industrial,Chemicals,5-Feb-97
"Manila Water Company, Inc.",MWC,Industrial,"Electricity, Energy, Power & Water",18-Mar-05
Megawide Construction Corporation,MWIDE,Industrial,"Construction, Infra. & Allied Services",18-Feb-11
"NiHAO Mineral Resources International, Inc.",NI,Mining and Oil,Mining,3-Oct-90
Nickel Asia Corporation,NIKL,Mining and Oil,Mining,22-Nov-10
Now Corporation,NOW,Services,Information Technology,23-Jul-03
National Reinsurance Corporation of the Philippines,NRCP,Financials,Other Financial Institutions,27-Apr-07
NextGenesis Corporation,NXGEN,Financials,Banks,8-Oct-96
Omico Corporation,OM,Mining and Oil,Mining,2-May-69
Oriental Petroleum and Minerals Corporation,OPM,Mining and Oil,Oil,14-Oct-70
"Oriental Peninsula Resources Group, Inc.",ORE,Mining and Oil,Mining,19-Dec-07
The Philodrill Corporation,OV,Mining and Oil,Oil,25-Sep-69
"Pacifica Holdings, Inc.",PA,Holding Firms,Holding Firms,23-Nov-59
"PAL Holdings, Inc.",PAL,Services,Transportation Services,4-Jan-54
"Paxys, Inc.",PAX,Services,Other Services,5-Oct-72
Philippine Business Bank,PBB,Financials,Banks,19-Feb-13
Philippine Bank of Communications,PBC,Financials,Banks,12-May-88
Petron Corporation,PCOR,Industrial,"Electricity, Energy, Power & Water",7-Sep-94
"PICOP Resources, Inc.",PCP,Industrial,Other Industrials,29-Oct-73
PetroEnergy Resources Corporation,PERC,Industrial,"Electricity, Energy, Power & Water",11-Aug-04
"Puregold Price Club, Inc.",PGOLD,Services,Retail,5-Oct-11
Premiere Horizon Alliance Corporation,PHA,Services,Other Services,5-May-97
Philcomsat Holdings Corporation,PHC,Services,Other Services,28-Nov-58
Philippine Estates Corporation,PHES,Property,Property,21-Jan-85
Phinma Corporation,PHN,Industrial,"Construction, Infra. & Allied Services",18-Aug-58
"PH Resorts Group Holdings, Inc.",PHR,Services,Casinos & Gaming,24-Nov-11
"Shakey's Pizza Asia Ventures, Inc.",PIZZA,Industrial,Food Beverage & Tobacco,15-Dec-16
Premium Leisure Corp.,PLC,Services,Casinos & Gaming,28-Aug-95
Panasonic Manufacturing Philippines Corporation,PMPC,Industrial,Electrical Components & Equipment,21-Jan-83
Philippine National Bank,PNB,Financials,Banks,21-Jun-89
Philippine National Construction Corporation,PNC,Industrial,"Construction, Infra. & Allied Services",13-Mar-74
"Phoenix Petroleum Philippines, Inc.",PNX,Industrial,"Electricity, Energy, Power & Water",11-Jul-07
"Globalport 900, Inc.",PORT,Services,Transportation Services,9-Jun-48
Pryce Corporation,PPC,Industrial,Chemicals,29-Oct-91
"Philippine Racing Club, Inc.",PRC,Services,Casinos & Gaming,2-Mar-52
"Prime Media Holdings, Inc.",PRIM,Holding Firms,Holding Firms,29-Jul-64
Primex Corporation,PRMX,Property,Property,10-Aug-01
Philippine Savings Bank,PSB,Financials,Banks,10-Oct-94
"The Philippine Stock Exchange, Inc.",PSE,Financials,Other Financial Institutions,15-Dec-03
Philippine Trust Company,PTC,Financials,Banks,17-Feb-88
Philippine Telegraph and Telephone Corporation,PTT,Services,Telecommunications,10-Jan-90
Philex Mining Corporation,PX,Mining and Oil,Mining,23-Nov-56
PXP Energy Corporation,PXP,Mining and Oil,Oil,12-Sep-11
Rizal Commercial Banking Corporation,RCB,Financials,Banks,6-Nov-86
"Roxas and Company, Inc.",RCI,Industrial,"Food, Beverage & Tobacco",29-Nov-48
Republic Glass Holdings Corporation,REG,Holding Firms,Holding Firms,17-Jul-59
RFM Corporation,RFM,Industrial,"Food, Beverage & Tobacco",21-Feb-66
Robinsons Land Corporation,RLC,Property,Property,16-Oct-89
Philippine Realty and Holdings Corporation,RLT,Property,Property,7-Sep-87
Rockwell Land Corporation,ROCK,Property,Property,11-May-12
"Roxas Holdings, Inc.",ROX,Industrial,"Food, Beverage & Tobacco",8-Aug-96
"Robinsons Retail Holdings, Inc.",RRHI,Services,Retail,11-Nov-13
SBS Philippines Corporation,SBS,Services,Other Services,10-Aug-15
Semirara Mining and Power Corporation,SCC,Mining and Oil,Mining,28-Nov-83
Security Bank Corporation,SECB,Financials,Banks,8-Jun-95
Philippine Seven Corporation,SEVN,Services,Retail,4-Feb-98
"Swift Foods, Inc.",SFI,Industrial,"Food, Beverage & Tobacco",15-Nov-94
"Solid Group, Inc.",SGI,Holding Firms,Holding Firms,26-Apr-48
"Synergy Grid & Development Phils., Inc.",SGP,Holding Firms,Holding Firms,10-May-72
Pilipinas Shell Petroleum Corporation,SHLPH,Industrial,"Electricity, Energy, Power & Water",3-Nov-16
"Shang Properties, Inc.",SHNG,Property,Property,13-Jun-91
Sun Life Financial Inc.,SLF,Financials,Other Financial Institutions,24-Mar-00
"Sta. Lucia Land, Inc.",SLI,Property,Property,14-Sep-87
SM Investments Corporation,SM,Holding Firms,Holding Firms,22-Mar-05
San Miguel Corporation,SMC,Holding Firms,Holding Firms,5-Nov-48
"SM Prime Holdings, Inc.",SMPH,Property,Property,5-Jul-94
"SOCResources, Inc.",SOC,Holding Firms,Holding Firms,5-Jan-94
SPC Power Corporation,SPC,Industrial,"Electricity, Energy, Power & Water",2-Apr-02
Seafront Resources Corporation,SPM,Holding Firms,Holding Firms,7-May-74
Supercity Realty Development Corporation,SRDC,Industrial,"Construction, Infra. & Allied Services",19-Dec-03
"SSI Group, Inc.",SSI,Services,Retail,7-Nov-14
SFA Semicon Philippines Corporation,SSP,Industrial,Electrical Components & Equipment,1-Dec-14
"STI Education Systems Holdings, Inc.",STI,Services,Education,12-Oct-76
Steniel Manufacturing Corporation,STN,Industrial,Other Industrials,22-Nov-93
"Vistamalls, Inc.",STR,Property,Property,17-Nov-70
"Suntrust Home Developers, Inc.",SUN,Property,Property,11-Feb-59
TKC Metals Corporation,T,Industrial,"Construction, Infra. & Allied Services",20-Jul-01
Transpacific Broadband Group Int`l. Inc.,TBGI,Services,Information Technology,12-Dec-03
Cirtek Holdings Philippines Corporation,TECH,Industrial,Electrical Components & Equipment,18-Nov-11
PLDT Inc.,TEL,Services,Telecommunications,17-Sep-53
PTFC Redevelopment Corporation,TFC,Property,Property,19-Dec-55
"Top Frontier Investment Holdings, Inc.",TFHI,Holding Firms,Holding Firms,13-Jan-14
"Harbor Star Shipping Services, Inc.",TUGS,Services,Transportation Services,30-Oct-13
Union Bank of the Philippines,UBP,Financials,Banks,29-Jun-92
"Unioil Resources & Holdings Company, Inc.",UNI,Holding Firms,Holding Firms,27-Jul-87
United Paragon Mining Corporation,UPM,Mining and Oil,Mining,2-Apr-73
Universal Robina Corporation,URC,Industrial,"Food, Beverage & Tobacco",25-Mar-94
"Vantage Equities, Inc.",V,Financials,Other Financial Institutions,30-Mar-93
Vitarich Corporation,VITA,Industrial,"Food, Beverage & Tobacco",8-Feb-95
"Vista Land & Lifescapes, Inc.",VLL,Property,Property,25-Jun-07
"Victorias Milling Company, Inc.",VMC,Industrial,"Food, Beverage & Tobacco",15-Nov-93
Vulcan Industrial & Mining Corporation,VUL,Industrial,"Construction, Infra. & Allied Services",31-Aug-70
Vivant Corporation,VVT,Industrial,"Electricity, Energy, Power & Water",23-Jun-94
PhilWeb Corporation,WEB,Services,Information Technology,8-Dec-69
"Wellex Industries, Incorporated",WIN,Holding Firms,Holding Firms,9-Jan-58
"Wilcon Depot, Inc.",WLCON,Services,Retail,31-Mar-17
"Waterfront Philippines, Incorporated",WPI,Services,Hotel & Leisure,17-Mar-95
Xurpas Inc.,X,"Small, Medium & Emerging Board","Small, Medium & Emerging Board",2-Dec-14
"Zeus Holdings, Inc.",ZHI,Holding Firms,Holding Firms,15-Jul-91