﻿CompanyName,Stock Symbol,GIMAP,Company,Market,Industry,Sector,Address,Zip code,Tel.,Fax,Website,Listed
,3K-BAT,0.0,THAI ENERGY STORAGE TECHNOLOGY PUBLIC COMPANY LIMITED,SET,Industrials,Automotive,"387 Moo 4, Sukhumvit Rd., Phraek Sa Sub-district, Mueang Samut Prakan District Samut Prakarn",10280,0-2709-3535,0-2393-2509 / 0-2709-4965,-,1.0
,ABPIF,0.0,AMATA B. GRIMM POWER POWER PLANT INFRASTRUCTURE FUND,SET,Resources,Energy & Utilities,"400/22 KASIKORNBANK Building, 6th and 12th floor, Phahon Yothin Road, Samsen Nai Sub-District, Phaya Thai District Bangkok",10400,0-2673-3999,0-2673-3988,http://www.kasikornasset.com,1.0
,ADD,0.0,ADDTECH HUB PUBLIC COMPANY LIMITED,mai,Services,-,"99/9 12th Floor, Unit 1204-5 Moo 2 Chaengwattana Road, Bang Talat, Pak Kret Nonthaburi",11120,0-2835-3957-8,0-2835-3959,https://www.addtechhub.com,1.0
,AIMCG,0.0,AIM COMMERCIAL GROWTH FREEHOLD AND LEASEHOLD REAL ESTATE INVESTMENT TRUST,SET,Property & Construction,Property Fund & REITs,"Millennia Tower Bldg. 16 Fl. Room 1601, Soi Lang Suan Lumpini, Pathum Wan Bangkok",10330,0-2254-0441-2,0-2254-0443,www.aimcgreit.com,1.0
,AIMIRT,0.0,AIM INDUSTRIAL GROWTH FREEHOLD AND LEASEHOLD REAL ESTATE INVESTMENT TRUST,SET,Property & Construction,Property Fund & REITs,"62 Millennia Tower Bldg. 16 Fl. Room 1601, Soi Lang Suan Lumpini, Pathum Wan Bangkok",10330,0-2254-0441-2,0-2254-0443,www.aimreit.com,1.0
,ALLY,0.0,ALLY LEASEHOLD REAL ESTATE INVESTMENT TRUST,SET,Property & Construction,Property Fund & REITs,"888 Praditmanutham Rd., Klongjan, Bangkapi Bangkok",10240,0-2101-5999,-,www.allyreit.com,1.0
,AMATAR,0.0,AMATA SUMMIT GROWTH FREEHOLD AND LEASEHOLD REAL ESTATE INVESTMENT TRUST,SET,Property & Construction,Property Fund & REITs,"2126 Kromadit Building, New Petchburi Road, Bangkapi, Huay kwang Bangkok",10320,0-2792-0089,0-2792-0090,www.amatareit.com,1.0
,ASW,0.0,ASSETWISE PUBLIC COMPANY LIMITED,SET,Property & Construction,Property Development,"9 Soi Ramintra 5 Junction 23, Anusawari, Bang Khen Bangkok",10220,0-2521-9533-35,-,www.assetwise.co.th,1.0
,BKKCP,0.0,BANGKOK COMMERCIAL PROPERTY FUND,SET,Property & Construction,Property Fund & REITs,"989 Siam Piwat Tower, 9th, 24 th Floor, Rama I Road, Pathumwan Bangkok",10330,0-2659-8888,0-2659-8860-1,-,1.0
,BOFFICE,0.0,BHIRAJ OFFICE LEASEHOLD REAL ESTATE INVESTMENT TRUST,SET,Property & Construction,Property Fund & REITs,"591 Sukhumvit Road, Khlong Tan Nua, Wattana Bangkok",10110,0-2261-0170,0-2261-0170,www.bofficereit.com,1.0
,BRRGIF,0.0,BURIRAM SUGAR GROUP POWER PLANT INFRASTRUCTURE FUND,SET,Resources,Energy & Utilities,"175 Sathorn City Tower, 7th , 21st and 26th Floor, South Sathorn Road, Thung Mahamek Sub-district, Sathorn District Bangkok",10120,0-2674-6488,0-2679-5995,http://www.bblam.co.th/,1.0
,BTSGIF,0.0,BTS RAIL MASS TRANSIT GROWTH INFRASTRUCTURE FUND,SET,Services,Transportation & Logistics,"175 Sathorn City Tower, 7th, 21st and 26th Floor, South Sathorn Road, Thung Mahamek Sub-district, Sathorn District Bangkok",10120,0-2674-6488,0-2679-5996,www.btsgif.com,1.0
,B-WORK,0.0,BUALUANG OFFICE LEASEHOLD REAL ESTATE INVESTMENT TRUST,SET,Property & Construction,Property Fund & REITs,"175 Sathorn City Tower, 7th, 21st and 26th Floor, South Sathorn Road, Sathorn Bangkok",10120,0-2674-6488,0-2679-5996,http://www.bworkreit.com,1.0
,CPNCG,0.0,CPN COMMERCIAL GROWTH LEASEHOLD PROPERTY FUND,SET,Property & Construction,Property Fund & REITs,"7-8th Floor, SCB Park Plaza 1, 18 Ratchadapisek Rd., Chatuchak Bangkok",10900,0-2949-1500,0-2949-1501,www.cpncg.com,1.0
,CPTGF,0.0,C.P. TOWER GROWTH LEASEHOLD PROPERTY FUND,SET,Property & Construction,Property Fund & REITs,"1 Empire Tower, 32nd Fl., South Sathorn Rd., Yannawa, Sathorn Bangkok",10120,0-2686-6100,0-2670-0430,www.ktam.co.th,1.0
,CSS,0.0,COMMUNICATION AND SYSTEM SOLUTION PUBLIC COMPANY LIMITED,SET,Services,Commerce,"329 Moo.3, Banmai, Pakkred Nonthaburi",11120,0-2018-1111,0-2018-1142,www.cssthai.com,1.0
,CTARAF,0.0,CENTARA HOTELS & RESORTS LEASEHOLD PROPERTY FUND,SET,Property & Construction,Property Fund & REITs,"400/22 KASIKORNBANK Building, 6th and 12th floor, Phahon Yothin Road, Samsen Nai Sub-District, Phaya Thai District Bangkok",10400,0-2673-3999,-,-,1.0
,DIF,0.0,DIGITAL TELECOMMUNICATIONS INFRASTRUCTURE FUND,SET,Technology,Information & Communication Technology,"7-8th Floor, SCB Park Plaza 1, 18 Ratchadapisek Rd., Chatuchak Bangkok",10900,0-2949-1500,0-2949-1501,www.digital-tif.com,1.0
,DITTO,0.0,DITTO (THAILAND) PUBLIC COMPANY LIMITED,mai,Technology,-,"235/1-3 Rat Phatthana Road, Saphan Sung Sub-district, Saphan Sung District Bangkok",10240,0-2517-5555,0-2517-5434,http://www.dittothailand.com/,1.0
,DMT,0.0,DON MUANG TOLLWAY PUBLIC COMPANY LIMITED,SET,Services,Transportation & Logistics,"40/40 Viphavadi Road, Sanambin, Don Muang Bangkok",10210,0-2792-6500,0-2552-8065,www.tollway.co.th,1.0
,DREIT,0.0,DUSIT THANI FREEHOLD AND LEASEHOLD REAL ESTATE INVESTMENT TRUST,SET,Property & Construction,Property Fund & REITs,"319 Chamchuri Square, 29th Floor, Phayathai Road, Pathumwan Sub-district, Pathumwan District Bangkok",10330,0-2200-9999 荠3681-3684,0-2636-3545,www.dtcreit.com,1.0
,DUSIT,0.0,DUSIT THANI PUBLIC COMPANY LIMITED,SET,Services,Tourism & Leisure,"319 Chamchuri Square Building, 29th Floor, Phyathai Road, Pathumwan Bangkok",10330,0-2200-9999,-,http://www.dusit.com,1.0
,EGATIF,0.0,"NORTH BANGKOK POWER PLANT BLOCK 1 INFRASTRUCTURE FUND, ELECTRICITY GENERATING AUTHORITY OF THAILAND",SET,Resources,Energy & Utilities,"No. 1, Empire Tower, 32nd Floor, South Sathorn Road, Yannawa Subdistrict, Sathorn District Bangkok",10120,0-2686-6100,0-2670-0430,www.ktam.co.th,1.0
,ERWPF,0.0,ERAWAN HOTEL GROWTH PROPERTY FUND,SET,Property & Construction,Property Fund & REITs,"7-8th Floor, SCB Park Plaza 1, 18 Ratchadapisek Rd., Chatuchak Bangkok",10900,0-2949-1500,0-2949-1501,www.scbam.com,1.0
,FTREIT,0.0,FRASERS PROPERTY THAILAND INDUSTRIAL FREEHOLD & LEASEHOLD REIT,SET,Property & Construction,Property Fund & REITs,"No.944 Mitrtown Office Tower, 22nd - 23rd Floor, Rama 4 Road, Wang Mai Sub-district, Pathum Wan District Bangkok",10330,0-2483-0000,0-2483-0592,www.ftreit.co.th,1.0
,FUTUREPF,0.0,FUTURE PARK LEASEHOLD PROPERTY FUND,SET,Property & Construction,Property Fund & REITs,"175 Sathorn City Tower, 7th, 21st and 26th Floor, South Sathorn Road, Thung Mahamek Sub-district, Sathorn District Bangkok",10120,0-2674-6488,0-2679-5996,http://investor.futurepark.co.th,1.0
,GAHREIT,0.0,GRANDE HOSPITALITY REAL ESTATE INVESTMENT TRUST,SET,Property & Construction,Property Fund & REITs,"9th and 24th Floor, Siam Piwat Tower Building, 989 Rama 1 Road, Patumwan Bangkok",10330,0-2659-8888,0-2659-8860,www.one-asset.com,1.0
,GOLDPF,0.0,GOLD PROPERTY FUND (LEASE HOLD),SET,Property & Construction,Property Fund & REITs,"400/22 KASIKORNBANK Building, 6th and 12th floor, Phahon Yothin Road, Samsen Nai Sub-District, Phaya Thai District Bangkok",10400,0-2673-3999,-,-,1.0
,GVREIT,0.0,GOLDEN VENTURES LEASEHOLD REAL ESTATE INVESTMENT TRUST,SET,Property & Construction,Property Fund & REITs,"22nd Floor, Mitrtown Office Tower, 944 Rama 4 Road, Wangmai, Pathumwan Bangkok",10330,0-2483-0000,-,www.gvreit.com,1.0
,HEMP,0.0,HEALTH EMPIRE CORPORATION PUBLIC COMPANY LIMITED,mai,Services,-,"19 Ramkhamhaeng 22 (Chittranukhro), Ramkhamhaeng RD. Huamark Sub-District, Bangkapi District Bangkok",10240,0-2514-5000,-,https://www.hempcorp.co.th,1.0
,HPF,0.0,HEMARAJ INDUSTRIAL PROPERTY AND LEASEHOLD FUND,SET,Property & Construction,Property Fund & REITs,"199 Column Tower Ground floor & 21st - 23rd floor, Ratchadapisek road, Klongtoey Bangkok",10110,0-2649-2000,0-2649-2100,www.mfcfund.com,1.0
,HREIT,0.0,HEMARAJ LEASEHOLD REAL ESTATE INVESTMENT TRUST,SET,Property & Construction,Property Fund & REITs,"No. 777,22nd Floor, WHA Tower, Moo 13 Debaratana Road (Bangna-Trad) Km. 7 Bangkaew, Bangplee Samut Prakarn",10540,0-2719-9557,0-2719-9553,www.hemarajreit.com,1.0
,IMPACT,0.0,IMPACT GROWTH REAL ESTATE INVESTMENT TRUST,SET,Property & Construction,Property Fund & REITs,"No.47/569-576 Moo 3, Floor 10, New Geneva Industry Condominium Popular Road 3, Banmai Subdistrict, Pakkred District Nonthaburi",11120,0-2833-4455,0-2833-4456,www.impactgrowthreit.com,1.0
,IND,0.0,INDEX INTERNATIONAL GROUP PUBLIC COMPANY LIMITED,mai,Property & Construction,-,"1/814 Moo 17, Soi Amphon, Phaholyothin Rd., Khukot, Lamlukka Pathum Thani",12130,0-2532-3623,0-2532-3566,www.index.co.th,1.0
,JAK,0.0,JAKPAISAN ESTATE PUBLIC COMPANY LIMITED,mai,Property & Construction,-,"153/3, Moo 6, Bangpoon, Amphue Muang Pathum Thani",12000,0-2157-1958,0-2157-1959,www.jakpaisanestate.com,1.0
,JASIF,0.0,JASMINE BROADBAND INTERNET INFRASTRUCTURE FUND,SET,Technology,Information & Communication Technology,"175 Sathorn City Tower, 7,21,26 Floor, South Sathorn Road, Tungmahamek, Sathorn Bangkok",10120,0-2674-6488,0-2679-5996,www.jas-if.com,1.0
,JR,0.0,J.R.W. UTILITY PUBLIC COMPANY LIMITED,SET,Technology,Information & Communication Technology,"32/288-290 Moo 8, Soi Ramindra 65, Ramindra Rd., Tharang, Bangkhen Bangkok",10230,0-2509-7000-2,0-2945-7381,www.jrw.co.th,1.0
,KBSPIF,0.0,KHONBURI SUGAR POWER PLANT INFRASTRUCTURE FUND,SET,Resources,Energy & Utilities,"No. 1 Empire Tower, 32nd Floor, South Sathorn Road, Yannawa, Sathorn Bangkok",10120,0-2686-6100,0-2670-0430,http://www.kbspif.com,1.0
,KEX,0.0,KERRY EXPRESS (THAILAND) PUBLIC COMPANY LIMITED,SET,Services,Transportation & Logistics,"906, 9/F, Chao Phya Tower, 89 Soi Wat Suan Plu, Charoen Krung Road, Bangrak Bangkok",10500,0-2238-5558,0-2237-3752,https://th.kerryexpress.com/th/home,1.0
,KISS,0.0,ROJUKISS INTERNATIONAL PUBLIC COMPANY LIMITED,SET,Consumer Products,Personal Products & Pharmaceuticals,100/8 Vongvanij Complex B Building Fl. 12 Rama 9 Huai Khwang district Bangkok,10310,0-2645-1155,-,http://www.rojukissinternational.com,1.0
,KPNPF,0.0,KPN PROPERTY FUND,SET,Property & Construction,Property Fund & REITs,"400/22 KASIKORNBANK Building, 6th and 12th floor, Phahon Yothin Road, Samsen Nai Sub-District, Phaya Thai District Bangkok",10400,0-2673-3999,0-2673-3900,-,1.0
,LHHOTEL,0.0,LH HOTEL LEASEHOLD REAL ESTATE INVESTMENT TRUST,SET,Property & Construction,Property Fund & REITs,"11 Q.HouseSathorn Building, 14th Floor, South Sathorn Road, Tungmahamek, Sathorn Bangkok",10120,0-2286-3484,0-2286-3585,www.lhfund.co.th,1.0
,LHPF,0.0,LAND AND HOUSES FREEHOLD AND LEASEHOLD PROPERTY FUND,SET,Property & Construction,Property Fund & REITs,"11 Q.HOUSE SATHON BUILDING 14th FL., SOUTH SATHON RD., THUNGMAHAMEK, SATHON Bangkok",10120,-,-,-,1.0
,LHSC,0.0,LH SHOPPING CENTERS LEASEHOLD REAL ESTATE INVESTMENT TRUST,SET,Property & Construction,Property Fund & REITs,"11 Q.House Sathorn Building, 14thFloor,South Sathorn Road, Tungmahamek, Sathorn Bangkok",10120,0-2286-3484,0-2286-3585,www.lhfund.co.th,1.0
,LPF,0.0,LOTUS'S RETAIL GROWTH FREEHOLD AND LEASEHOLD PROPERTY FUND,SET,Property & Construction,Property Fund & REITs,"1 Empire Tower, 32nd Fl., South Sathorn Rd., Yannawa, Sathorn Bangkok",10120,0-2686-6100,0-2670-0430,-,1.0
,LUXF,0.0,LUXURY REAL ESTATE INVESTMENT FUND,SET,Property & Construction,Property Fund & REITs,"Units 902-908, 9th Floor, Mitrtown Officer Tower No. 944 Rama 4 Road, Wangmai, Pathumwan Bangkok",10330,0-2126-8399,0-2217-5281,www.thanachartfundeastspring.com,1.0
,MENA,0.0,MENA TRANSPORT PUBLIC COMPANY LIMITED,SET,Services,Transportation & Logistics,"280/8 Moo 9, Tambol Thap Kwang, Ampher Kaeng Khoi Sra Kaew",18260,0-3620-0321,-,www.menatransport.co.th,1.0
,M-II,0.0,MFC INDUSTRIAL INVESTMENT PROPERTY AND LEASEHOLD FUND,SET,Property & Construction,Property Fund & REITs,"199 Column Tower Ground floor & 21st - 23rd floor, Ratchadapisek road, Klongtoey Bangkok",10110,0-2649-2000,0-2649-2100,www.mfcfund.com,1.0
,MIPF,0.0,MILLIONAIRE PROPERTY FUND,SET,Property & Construction,Property Fund & REITs,"989 Siam Piwat Tower, 9th, 24 th Floor, Rama I Road, Pathumwan Bangkok",10330,0-2659-8888,0-2659-8860-1,-,1.0
,MIT,0.0,MFC INDUSTRIAL REAL ESTATE INVESTMENT TRUST,SET,Property & Construction,Property Fund & REITs,"199 Column Tower, Ground & 21st -23rd Floor, Ratchadapisek Road, Klongtoey Bangkok",10110,0-2649-2182,0-2649-2108,www.mfcfund.com,1.0
,MJLF,0.0,MAJOR CINEPLEX LIFESTYLE LEASEHOLD PROPERTY FUND,SET,Property & Construction,Property Fund & REITs,"400/22 KASIKORNBANK Building, 6th and 12th floor, Phahon Yothin Road, Samsen Nai Sub-District, Phaya Thai District Bangkok",10400,0-2673-3999,0-2673-3900,-,1.0
,MNIT,0.0,MFC-NICHADA THANI PROPERTY FUND,SET,Property & Construction,Property Fund & REITs,"COLUMN TOWER, GROUND FLOOR & 21st-23rd FLOORS, 199 RATCHADAPISEK ROAD, KHLONG TOEI, Bangkok",10110,-,-,www.mfcfund.com,1.0
,MNIT2,0.0,NICHADA THANI PROPERTY FUND 2,SET,Property & Construction,Property Fund & REITs,"199 Column Tower, Ground Floor & 21st-23rd Floor, Ratchadapisek Road, Klongtoey Bangkok",10110,0-2649-2000,0-2649-2100,www.mfcfund.com,1.0
,MNRF,0.0,MULTI-NATIONAL RESIDENCE FUND,SET,Property & Construction,Property Fund & REITs,"199 Column Tower, Ground Floor & 21st-23rd Floor, Ratchadapisek Road, Klongtoey Bangkok",10110,0-2649-2000,0-2649-2100,www.mfcfund.com,1.0
,M-PAT,0.0,MFC PATONG HERITAGE PROPERTY FUND,SET,Property & Construction,Property Fund & REITs,"199 Column Tower Ground floor & 21st - 23rd floor, Ratchadapisek road, Klongtoey Bangkok",10110,0-2649-2000,0-2649-2100,www.mfcfund.com,1.0
,M-STOR,0.0,MFC-STRATEGIC STORAGE FUND,SET,Property & Construction,Property Fund & REITs,"199 Column Tower, Ground Floor & 21st-23rd Floor, Ratchadapisek Road, Klongtoey Bangkok",10110,0-2649-2000,0-2649-2100,www.mfcfund.com,1.0
,MUD,0.0,MUD & HOUND PUBLIC COMPANY LIMITED,mai,Agro & Food Industry,-,"206, Soi Pattanakarn 20, Suan Luang Sub-District, Suan Luang District Bangkok",10250,0-2079-9765,0-2079-9755,www.mudman.co.th,1.0
,NOVA,0.0,NOVA EMPIRE PUBLIC COMPANY LIMITED,SET,Industrials,Steel,"No. 88 Soi Bangna-Trad 30, Theprattana Road, Bangna Tai, Bangna Bangkok",10260,-,-,www.tiw.co.th,1.0
,NSL,0.0,NSL FOODS PUBLIC COMPANY LIMITED,SET,Agro & Food Industry,Food & Beverage,"55/22 Moo 3, Bangbuathong-Nonthaburi Bridge (345) Road, Tambol Lampho, Ampher Bang bua thong Nonthaburi",11110,0-2525-8520,0-2525-8538,www.nslfoods.com,1.0
,OR,0.0,PTT OIL AND RETAIL BUSINESS PUBLIC COMPANY LIMITED,SET,Resources,Energy & Utilities,"555/2 Energy Complex, Building B, 12th Floor, Vibhavadi Rangsit Road, Chatuchak, Chatuchak Bangkok",10900,0-2196-5959,-,www.pttor.com,1.0
,PACO,0.0,PRESIDENT AUTOMOBILE INDUSTRIES PUBLIC COMPANY LIMITED,mai,Industrial,-,"88/8 Moo.9, Soi WorPorAor.11(Piset), Satetakit 1 Road, Suanluang, Krathum Baen Samut Sakhon",74110,0-2810-9900,"0-2810-0526-8 ext. 321, 307",www.paco.co.th,1.0
,POMPUI,0.0,KUANG PEI SAN FOOD PRODUCTS PUBLIC COMPANY LIMITED,SET,-,Companies Under Rehabilitation,"No. 89 Surin Building, Chiang mai Road, Klongsan Sub-district, Klongsan District Bangkok",10600,0-2863-3288,0-2863-3133,www.smilingfish.com,1.0
,POPF,0.0,PRIME OFFICE LEASEHOLD PROPERTY FUND,SET,Property & Construction,Property Fund & REITs,"7-8th Floor, SCB Park Plaza 1, 18 Ratchadapisek Rd., Chatuchak Bangkok",10900,0-2949-1500,0-2949-1501,www.scbam.com,1.0
,PPF,0.0,PINTHONG INDUSTRIAL PARK PROPERTY FUND,SET,Property & Construction,Property Fund & REITs,"7-8th Floor, SCB Park Plaza 1, 18 Ratchadapisek Rd., Chatuchak Bangkok",10900,0-2949-1500,0-2949-1501,www.scbam.com,1.0
,PRAPAT,0.0,PEERAPAT TECHNOLOGY PUBLIC COMPANY LIMITED,mai,Industrial,-,"406 Ratchadaphisek Road, Samsen Nok, Huai Khwang Bangkok",10310,0-2290-1234,0-2290-1249,https://www.peerapat.com,1.0
,PROEN,0.0,PROEN CORP PUBLIC COMPANY LIMITED,mai,Technology,-,"72 CAT Telecom Tower 4th,18th FL., Charoen Krung Road, Bangrak, Bangrak Bangkok",10500,"0-2690-3888, 0-2639-7888","0-2639-7892, 0-2691-1898",www.proen.co.th,1.0
,PROS,0.0,PROSPER ENGINEERING PUBLIC COMPANY LIMITED,mai,Property & Construction,-,"11 Soi Nakniwat 20, Nakniwat Road, Ladphrao Bangkok",10230,0-2514-3113,0-2514-3553,www.prosperengineering.co.th,1.0
,PROSPECT,0.0,PROSPECT LOGISTICS AND INDUSTRIAL LEASEHOLD REAL ESTATE INVESTMENT TRUST,SET,Property & Construction,Property Fund & REITs,"No. 345, 345 Surawong Building, 7th Floor, Surawong Road, Suriyawong, Bangrak Bangkok",10500,0-2697-3788,0-2697-3794,www.prospectreit.com,1.0
,QHHR,0.0,QUALITY HOUSES HOTEL AND RESIDENCE FREEHOLD AND LEASEHOLD PROPERTY FUND,SET,Property & Construction,Property Fund & REITs,"11 Q. House Sathorn Building, 14th Fl., South Sathorn Rd., Thungmahamek, Sathorn Bangkok",10120,-,-,-,1.0
,QHOP,0.0,QUALITY HOSPITALITY LEASEHOLD PROPERTY FUND,SET,Property & Construction,Property Fund & REITs,"23A, 25 Floor, Asia Centre Building, 173/27-30, 32-33 South Sathon Road, Thungmahamek, Sathon Bangkok",10120,0-2786-2000,0-2786-2370-74,-,1.0
,QHPF,0.0,QUALITY HOUSES LEASEHOLD PROPERTY FUND,SET,Property & Construction,Property Fund & REITs,"14th Q House Sathon Building, 11 South Sathon Rd., Tungmahamek, Sathon Bangkok",10120,"0-2286-3484, 0-2679-2155","0-2286-3585, 0-2679-2150",www.lhfund.co.th,1.0
,RT,0.0,RIGHT TUNNELLING PUBLIC COMPANY LIMITED,SET,Property & Construction,Construction Services,"No. 292 Moo 4, Bangna-Trad (KM 26) Rd., Bangbor, Bangbor Samut Prakarn",10560,0-2313-4848,"0-2313-4849, 4787",-,1.0
,SA,0.0,SIAMESE ASSET PUBLIC COMPANY LIMITED,SET,Property & Construction,Property Development,"1077/48 Phahon Yothin Road, Phaya Thai Sub-districts, Phaya Thai District Bangkok",10400,"0-2617-1555, 1306",0-2617-1591,www.siameseasset.co.th,1.0
,SAFARI,0.0,SAFARI WORLD PUBLIC COMPANY LIMITED,SET,-,Companies Under Rehabilitation,"99 PANYAINTRA ROAD, SAMWATAWANTOK, KHLONG SAM WA Bangkok",10510,"0-2518-1000-19, 0-2914-4100-19","0-2518-1022, 0-2914-2959",www.safariworld.com,1.0
,SAK,0.0,SAKSIAM LEASING PUBLIC COMPANY LIMITED,SET,Financials,Finance & Securities,"49/47 Chetsada Bodin Road., Tha It, Muang Uttaradit Uttradit",53000,0-5544-4495,0-5544-0371,www.saksiam.com,1.0
,SBPF,0.0,SAMUI BURI PROPERTY FUND,SET,Property & Construction,Property Fund & REITs,44 CIMB Thai building 16th Floor Langsuan Road Lumpini Patthumwan Bangkok,10330,-,-,www.cimb-principal.com,1.0
,SECURE,0.0,NFORCE SECURE PUBLIC COMPANY LIMITED,mai,Technology,-,"9/2 The Synchronized, Soi Ratchadapisek 18, Ratchadapisek Road, Huaikhwang Bangkok",10310,0-2274-0984,-,www.nforcesecure.com,1.0
,SHREIT,0.0,STRATEGIC HOSPITALITY EXTENDABLE FREEHOLD AND LEASEHOLD REAL ESTATE INVESTMENT TRUST,SET,Property & Construction,Property Fund & REITs,"Unit 1107, 11th Floor, Abdulrahim Place, No.990 Rama IV Road, Silom Subdistrict, Bank Rak District Bangkok",10500,09-4310-1810,-,www.sp-investors.com,1.0
,SIRIP,0.0,SIRI PRIME OFFICE PROPERTY FUND,SET,Property & Construction,Property Fund & REITs,"7-8th Floor, SCB Park Plaza 1, 18 Ratchadapisek Rd., Chatuchak Bangkok",10900,0-2949-1500,0-2949-1501,www.scbam.com,1.0
,SLM,0.0,SLM CORPORATION PUBLIC COMPANY LIMITED,mai,Services,-,"No 165, The Racquet Club, Building 4, 4th Floor, Unit 401, Sukhumvit 49 (Klang) Alley, Klongton Nua Subdistrict, Wattana District Bangkok",10110,0-2013-7137-8,0-2013-7137-8 #5,www.chuosenko.co.th,1.0
,SMD,0.0,SAINTMED PUBLIC COMPANY LIMITED,mai,Consumer Products,-,"222, 222/1-2 M.1 West Inn Complex 10 Fl. Soi - Rattanathibet Rd., Bang Rak Yai, Bang Bua Thong Nonthaburi",11110,"0-2527-8075-8, 0-2966-6467-8",0-2966-6471,https://www.saintmed.com,1.0
,SO,0.0,SIAMRAJATHANEE PUBLIC COMPANY LIMITED,SET,Services,Professional Services,"329 Moo 10 Kuson Song Samakkhi Soi 1 Old Railway Road, Samrong, Phrapradaeng Samut Prakarn",10130,0-2363-9300,0-2363-9377,https://www.siamrajathanee.com/,1.0
,SPF,0.0,SAMUI AIRPORT PROPERTY FUND (LEASEHOLD),SET,Property & Construction,Property Fund & REITs,"19th Floor, Muang Thai ? Phatra Complex Building Tower A, 252/25 Ratchadaphisek Road, Huaykwang Bangkok",10310,0-2305-9800,0-2305-9803-4,www.phatraasset.com,1.0
,SPRIME,0.0,S PRIME GROWTH LEASEHOLD REAL ESTATE INVESTMENT TRUST,SET,Property & Construction,Property Fund & REITs,"123 Sun Towers A, 31st Floor, Vibhavadi Rangsit Rd, Chom Phon Sub-District, Chatuchak District Bangkok",10900,-,-,-,1.0
,SRIPANWA,0.0,SRI PANWA HOSPITALITY REAL ESTATE INVESTMENT TRUST,SET,Property & Construction,Property Fund & REITs,"2922/198 10thFl., Charn Issara Tower II, New Petchburi Road, Bangkapi, Huay Kwang Bangkok",10310,0-2308-2022,0-2308-2022,www.cireit.com,1.0
,SSPF,0.0,SALA @ SATHORN PROPERTY FUND,SET,Property & Construction,Property Fund & REITs,"898 Ploenchit Tower, 1-2nd Floor Zone A and 12th Floor, Ploenchit Road, Lumpini, Pathumwan Bangkok",10330,0-2657-5757,-,-,1.0
,SSTRT,0.0,SUB SRI THAI REAL ESTATE INVESTMENT TRUST,SET,Property & Construction,Property Fund & REITs,"No. 2044/25-27, New Petchaburi Extension, Bangkapi, Huaykwang Bangkok",10310,0-2318-5514-5,0-2318-3490-1,www.sstrm.co.th,1.0
,STOWER,0.0,SKY TOWER PUBLIC COMPANY LIMITED,mai,Resources,-,"No.247 Romklow Road, Saensaeb, Minburi Bangkok",10510,0-2543-9020-8,0-2543-9029,www.uwc.co.th,1.0
,SUPEREIF,0.0,SUPER ENERGY POWER PLANT INFRASTRUCTURE FUND,SET,Resources,Energy & Utilities,"175 Sathorn City Tower, 7th , 21st and 26th Floor, South Sathorn Road, ThungMahamek Sub-district, Sathorn District Bangkok",10120,0-2674-6488,0-2679-5996,http://www.bblam.co.th/,1.0
,TFFIF,0.0,THAILAND FUTURE FUND,SET,Services,Transportation & Logistics,"1 Empire Tower, 32nd Floor, South Sathorn Road, Yan Nawa, Sathorn Bangkok",10120,0-2686-6100,0-2670-0430,www.tffif.com,1.0
,TGH,0.0,THAI GROUP HOLDINGS PUBLIC COMPANY LIMITED,SET,Financials,Insurance,"315 Southeast Building 12th floor Silom, Silom, Bangrak Bangkok",10500,0-2631-1311,-,https://www.tgh.co.th,1.0
,TIDLOR,0.0,NGERN TID LOR PUBLIC COMPANY LIMITED,SET,Financials,Finance & Securities,"428 Ari Hill Building, 11th floor, Phahonyothin Road, Samsen Nai Phaya Thai Bangkok",10400,08-8088-0880,-,http://www.ngerntidlor.com/th/home.html,1.0
,TIF1,0.0,THAI INDUSTRIAL FUND 1,SET,Property & Construction,Property Fund & REITs,"989 Siam Piwat Tower, 9th, 24th Floor, Rama I Road, Pathumwan District Bangkok",10330,0-2659-8888,0-2659-8860-1,-,1.0
,TLHPF,0.0,THAILAND HOSPITALITY PROPERTY FUND,SET,Property & Construction,Property Fund & REITs,"989 Siam Piwat Tower, 9th, 24th Floor, Rama I Road, Pathumwan District Bangkok",10330,0-2659-8888,0-2659-8860-1,www.one-asset.com,1.0
,TNPF,0.0,TRINITY FREEHOLD AND LEASEHOLD PROPERTY FUND,SET,Property & Construction,Property Fund & REITs,"44 CIMB THAI Bank Building, 16th Floor, Langsuan Road, Lumpini, Pathumwan Bangkok",10330,0-2686-9500,0-2657-3167,www.cimb-principal.co.th,1.0
,TPCS,0.0,TPCS PUBLIC COMPANY LIMITED,SET,Industrials,Industrial Materials & Machinery,"No. 489 Rama 3 Road, Bang Khlo, Bang Kho Laem Bangkok",10120,0-2294-0071,-,www.tpcorp.co.th,1.0
,TPRIME,0.0,THAILAND PRIME PROPERTY FREEHOLD AND LEASEHOLD REAL ESTATE INVESTMENT TRUST,SET,Property & Construction,Property Fund & REITs,"388 Exchange Tower 17th Floor, Unit 1701-2, Sukhumvit Road, Khlongtoey, Klongtoey Bangkok",10110,0-2258-4515,0-2258-4519,www.tprimereit.com,1.0
,TQR,0.0,TQR PUBLIC COMPANY LIMITED,mai,Financials,-,"46/7 Rungrojthanakul Building, 8th Floor, Ratchadaphisek Road, Huay Khwang Sub-district, Huay Khwang District Bangkok",10310,0-2150-8560,0-2150-8563,https://www.tqr.co.th,1.0
,TTB,0.0,TMBTHANACHART BANK PUBLIC COMPANY LIMITED,SET,Financials,Banking,"3000 PHAHOLYOTHIN ROAD, JOMPOL, CHATU CHAK Bangkok",10900,"0-2299-1111, 0-2617-9111",0-2299-2758,http://www.tmbbank.com,1.0
,TTLPF,0.0,TALAAD THAI LEASEHOLD PROPERTY FUND,SET,Property & Construction,Property Fund & REITs,"1 Empire Tower, 32nd Fl., South Sathorn Rd., Yannawa, Sathorn Bangkok",10120,0-2686-6100,0-2670-0430,-,1.0
,TU-PF,0.0,T.U. DOME RESIDENTIAL COMPLEX LEASEHOLD PROPERTY FUND,SET,Property & Construction,Property Fund & REITs,"23A, 25 Floor, Asia Centre Building, 173/27-30, 32-33 South Sathon Road, Thungmahamek, Sathon Bangkok",10120,0-2786-2000,0-2786-2370-74,-,1.0
,URBNPF,0.0,URBANA PROPERTY FUND (LEASE HOLD),SET,Property & Construction,Property Fund & REITs,"19th Floor, Muang Thai ? Phatra Complex Building Tower A, 252/25 Ratchadaphisek Road, Huaykwang Bangkok",10310,0-2305-9800,0-2305-9803-4,http://www.phatraasset.com,1.0
,VI,0.0,VENTURE INCORPORATION PUBLIC COMPANY LIMITED,SET,-,Companies Under Rehabilitation,"124, Soi Ramkhamhaeng 52/2 (Sin-Setthee), Huamark, Bang Kabi Bangkok",10240,0-2026-6405,0-2541-4147,http://www.ventureinc.co.th,1.0
,WHABT,0.0,WHA BUSINESS COMPLEX FREEHOLD AND LEASEHOLD REAL ESTATE INVESTMENT TRUST,SET,Property & Construction,Property Fund & REITs,"1 Empire Tower, 32nd Fl., South Sathorn Rd., Yannawa, Sathorn Bangkok",10120,0-2686-6100,0-2670-0430,www.whabt.com,1.0
,WHART,0.0,WHA PREMIUM GROWTH FREEHOLD AND LEASEHOLD REAL ESTATE INVESTMENT TRUST,SET,Property & Construction,Property Fund & REITs,"400/22 KASIKORN Bank Building, 6th Floor Phaholyothin Road, Samsen Nai Sub-District, Phayathai District Bangkok",10400,0-2673-3999,0-2673-3900,www.whareit.com,1.0
,WINMED,0.0,WINNERGY MEDICAL PUBLIC COMPANY LIMITED,mai,Consumer Products,-,"634/4, Soi Ramkhamhaeng 39 (Theplila 1), Pracha Uthit Rd., Wang Thong Lang Bangkok",10310,0-2725-0888,0-2725-0880,http://www.winnergymedical.co.th,1.0
,WORLD,0.0,WORLD CORPORATION PUBLIC COMPANY LIMITED,SET,-,Companies Under Rehabilitation,"4 Moo 11 Hathai Rat Road, Ladsawai Sub-district, Lam Luk Ka District Pathum Thani",12150,0-2563-4056,0-2563-4057,www.worldcorp.co.th,1.0
,WR,0.0,WE RETAIL PUBLIC COMPANY LIMITED,SET,-,Companies Under Rehabilitation,"212/3 Metro Town, Unit D2-03, 2nd Floor Kanlapraphruek Road, Bang Wa, Phasi Charoen Bangkok",10160,0-2496-1896-7,-,-,1.0
,XPG,0.0,XSPRING CAPITAL PUBLIC COMPANY LIMITED,SET,Financials,Finance & Securities,"18th Floor, Liberty Square Bldg, 287 Silom Road, Bangrak Bangkok",10500,0-2695-5000,0-2631-1709,www.seamico.com,1.0
