﻿CompanyName,Stock Symbol,GIMAP,Company,Board,Listed
,AAT,0.0,Tien Son Thanh Hoa Joint Stock Company,HOSE,1.0
,ADG,0.0,Clever Group Corporation,HOSE,1.0
,APH,0.0,An Phat Holdings Joint Stock Company,HOSE,1.0
,ASG,0.0,ASG Corporation,HOSE,1.0
,ASG,0.0,ASG Corporation,HNX,1.0
,BCM,0.0,Investment and Industrial Development Joint Stock Corporation,HOSE,1.0
,,0.0,,HOSE,1.0
,,0.0,,HOSE,1.0
,,0.0,,HOSE,1.0
,,0.0,,HOSE,1.0
,,0.0,,HOSE,1.0
,,0.0,,HOSE,1.0
,,0.0,,HOSE,1.0
,,0.0,,HOSE,1.0
,,0.0,,HOSE,1.0
,,0.0,,HOSE,1.0
,,0.0,,HOSE,1.0
,,0.0,,HOSE,1.0
,,0.0,,HOSE,1.0
,,0.0,,HNX,1.0
,,0.0,,HNX,1.0
,,0.0,,HNX,1.0
,,0.0,,HNX,1.0
,BKG,0.0,BKG VietNam Investment Joint Stock Company,HOSE,1.0
,DXS,0.0,Dat Xanh Real Estate Joint Stock Company,HOSE,1.0
,DXS,0.0,Dat Xanh Real Estate Services Joint Stock Company,HNX,1.0
,KHG,0.0,Khai Hoan Land Real Estate Joint Stock Company,HOSE,1.0
,LPB,0.0,Lien Viet Post Joint Stock Commercial Bank,HOSE,1.0
,MIG,0.0,Military Insurance Corporation,HOSE,1.0
,MSB,0.0,Vietnam Maritime Commercial Joint Stock Bank,HOSE,1.0
,OCB,0.0,Orient Commercial Joint Stock Bank,HOSE,1.0
,SSB,0.0,Southeast Asia Commercial Joint Stock Bank,HOSE,1.0
,SVD,0.0,Vu Dang Investment & Trading Joint Stock Company,HOSE,1.0
,TDP,0.0,Thuan Duc Joint Stock Company,HOSE,1.0
,TNH,0.0,Thai Nguyen International Hospital Joint Stock Company,HOSE,1.0
,VCA,0.0,VNSTEEL - VICASA Joint Stock Company,HOSE,1.0
,VIB,0.0,Vietnam International Commercial Joint Stock Bank,HOSE,1.0
,BAB,0.0,Bac A Commercial Joint Stock Bank,HNX,1.0
,BNA,0.0,Bao Ngoc Investment Production Corporation,HNX,1.0
,DTK,0.0,Vinacomin - Power Holding Corporation,HNX,1.0
,DVG,0.0,Dai Viet Paint Group Joint Stock Company,HNX,1.0
,GIC,0.0,Green Development and Investment Service Joint Stock Company,HNX,1.0
,GMA,0.0,Viet Nam Enteco Corporation,HNX,1.0
,L40,0.0,40 Investment and Construction Joint Stock Company,HNX,1.0
,MVB,0.0,Vinacomin - VietBac Mining Industry Holding Corporation,HNX,1.0
,PRE,0.0,PVI Reinsurance Joint-stock Corporation,HNX,1.0
